<svg width="0" height="0" style="position:absolute;" version="1.1" xmlns="http://www.w3.org/2000/svg" xmlns:xlink="http://www.w3.org/1999/xlink">

	<symbol id="close" viewBox="0 0 21.9 21.9">
		<path d="M14.1,11.3c-0.2-0.2-0.2-0.5,0-0.7l7.5-7.5c0.2-0.2,0.3-0.5,0.3-0.7s-0.1-0.5-0.3-0.7l-1.4-1.4C20,0.1,19.7,0,19.5,0  c-0.3,0-0.5,0.1-0.7,0.3l-7.5,7.5c-0.2,0.2-0.5,0.2-0.7,0L3.1,0.3C2.9,0.1,2.6,0,2.4,0S1.9,0.1,1.7,0.3L0.3,1.7C0.1,1.9,0,2.2,0,2.4  s0.1,0.5,0.3,0.7l7.5,7.5c0.2,0.2,0.2,0.5,0,0.7l-7.5,7.5C0.1,19,0,19.3,0,19.5s0.1,0.5,0.3,0.7l1.4,1.4c0.2,0.2,0.5,0.3,0.7,0.3  s0.5-0.1,0.7-0.3l7.5-7.5c0.2-0.2,0.5-0.2,0.7,0l7.5,7.5c0.2,0.2,0.5,0.3,0.7,0.3s0.5-0.1,0.7-0.3l1.4-1.4c0.2-0.2,0.3-0.5,0.3-0.7  s-0.1-0.5-0.3-0.7L14.1,11.3z"/>
	</symbol>

	<symbol id="logo"  viewBox="0 0 170 29" fill="none">
		<path d="M105.242 7.99L105.165 8.38185H102.23L101.535 12.457H104.47L101.767 27.9742H105.937L108.64 12.457H113.197L113.892 8.38185H109.335L109.413 7.99C109.915 4.97279 111.845 3.83643 114.664 4.11072L115.359 0.0355231C109.606 -0.356323 106.169 2.50415 105.242 7.99Z" fill="#FFCF00"/>
		<path d="M131.492 8.38185L130.951 11.5558C129.677 9.20472 127.399 7.87245 124.425 7.87245C119.019 7.87245 114.501 11.9085 113.459 17.747C112.455 23.272 115.621 28.4836 121.413 28.4836C124.425 28.4836 126.781 27.4256 128.48 25.6623L128.094 27.9742H132.264L135.662 8.38185H131.492ZM122.649 24.4475C119.135 24.4475 117.011 21.7046 117.629 18.0604C118.324 14.0636 121.491 11.9085 124.657 11.9085C127.785 11.9085 130.256 13.9852 129.87 17.747L129.677 18.8833C128.828 22.214 125.931 24.4475 122.649 24.4475Z" fill="#FFCF00"/>
		<path d="M145.005 28.4836C149.098 28.4836 152.341 26.6419 152.998 22.9193C154.311 15.2783 143.305 17.5902 144.001 13.7893C144.271 12.3003 145.815 11.6734 147.206 11.6734C148.827 11.6734 150.179 12.4179 150.642 13.8677L154.388 11.9476C153.23 9.40065 150.758 7.87245 147.437 7.87245C143.846 7.87245 140.448 9.91005 139.83 13.4367C138.517 20.8817 149.445 18.9225 148.827 22.5275C148.596 23.899 147.283 24.6043 145.352 24.6043C143.074 24.6043 141.645 23.4287 141.182 21.783L137.436 23.7422C138.517 26.6419 140.989 28.4836 145.005 28.4836Z" fill="#FFCF00"/>
		<path d="M164.478 12.457H169.266L170 8.38185H165.173L166.138 2.896L161.775 4.14991L161.041 8.38185H157.488L156.755 12.457H160.307L158.685 21.8614C157.797 26.9554 160.578 28.7578 166.602 27.9742L167.258 24.1732C164.169 24.3692 162.431 24.4084 162.856 21.8614L164.478 12.457Z" fill="#FFCF00"/>
		<ellipse opacity="0.1" cx="79.3967" cy="17.5618" rx="8.14378" ry="8.2639" fill="#FFCF00"/>
		<ellipse opacity="0.1" cx="80.7746" cy="17.5619" rx="8.14378" ry="8.2639" fill="#FFCF00"/>
		<ellipse opacity="0.2" cx="82.1526" cy="17.5619" rx="8.14378" ry="8.2639" fill="#FFCF00"/>
		<ellipse opacity="0.4" cx="83.5305" cy="17.5619" rx="8.14378" ry="8.2639" fill="#FFCF00"/>
		<ellipse opacity="0.6" cx="84.9084" cy="17.5619" rx="8.14378" ry="8.2639" fill="#FFCF00"/>
		<ellipse opacity="0.8" cx="86.3108" cy="17.5619" rx="8.14378" ry="8.2639" fill="#FFCF00"/>
		<ellipse cx="87.6506" cy="17.5619" rx="8.14378" ry="8.2639" fill="#FFCF00"/>
		<path d="M18.2173 8.38185L17.6767 11.5558C16.4024 9.20473 14.1241 7.87245 11.1507 7.87245C5.74463 7.87245 1.22667 11.9085 0.184064 17.747C-0.819927 23.272 2.34651 28.4836 8.13877 28.4836C11.1507 28.4836 13.5063 27.4256 15.2053 25.6623L14.8192 27.9742H18.9896L22.3877 8.38185H18.2173ZM9.37445 24.4475C5.86048 24.4475 3.73665 21.7046 4.35449 18.0605C5.04956 14.0636 8.21599 11.9085 11.3824 11.9085C14.5102 11.9085 16.9816 13.9853 16.5955 17.747L16.4024 18.8833C15.5529 22.214 12.6567 24.4475 9.37445 24.4475Z" fill="white"/>
		<path d="M44.7404 0.54493L42.8097 11.595C41.574 9.24392 39.2571 7.87245 36.2837 7.87245C30.8776 7.87245 26.3596 11.9085 25.317 17.747C24.313 23.272 27.4795 28.4836 33.2717 28.4836C36.2837 28.4836 38.6778 27.4256 40.4155 25.6231L39.9907 27.9742H44.1612L48.9108 0.54493H44.7404ZM34.546 24.4475C31.0321 24.4475 28.8696 21.7046 29.4875 18.0605C30.1825 14.0636 33.3876 11.9085 36.554 11.9085C39.6818 11.9085 42.1532 13.9461 41.767 17.7078L41.574 18.8441C40.7244 22.1748 37.8283 24.4475 34.546 24.4475Z" fill="white"/>
		<path d="M56.9005 28.4836C60.9937 28.4836 64.2374 26.6419 64.8938 22.9193C66.2067 15.2783 55.2015 17.5902 55.8965 13.7893C56.1668 12.3003 57.7114 11.6734 59.1016 11.6734C60.7234 11.6734 62.0749 12.4179 62.5383 13.8677L66.284 11.9477C65.1255 9.40065 62.6542 7.87245 59.3333 7.87245C55.7421 7.87245 52.3439 9.91005 51.7261 13.4367C50.4132 20.8817 61.3413 18.9225 60.7234 22.5275C60.4917 23.899 59.1788 24.6043 57.2481 24.6043C54.9698 24.6043 53.541 23.4287 53.0776 21.783L49.332 23.7422C50.4132 26.6419 52.8846 28.4836 56.9005 28.4836Z" fill="white"/>
	</symbol>

	<symbol id="buckler" viewBox="0 0 103 126" fill="none">
		<path d="M51.2161 14.474L51.2153 14.4739C50.0681 14.3615 49.1912 13.394 49.1912 12.2479C49.1912 11.0111 50.204 9.99834 51.4408 9.99834C52.6776 9.99834 53.6904 11.0111 53.6904 12.2479C53.6904 13.5741 52.5441 14.6091 51.2161 14.474Z" fill="#151515" stroke="#FFD41A" stroke-width="0.4"/>
		<path d="M52.094 125.129C51.8713 125.195 51.6708 125.218 51.4411 125.218C51.2077 125.218 50.9863 125.195 50.7939 125.13L50.794 125.13L50.7882 125.129C20.45 116.017 0.2 88.1953 0.2 57.1241V17.147C0.2 15.9102 1.21277 14.8974 2.44957 14.8974C9.32086 14.8974 14.8974 9.32086 14.8974 2.44957C14.8974 1.21277 15.9102 0.2 17.147 0.2H85.7351C86.9719 0.2 87.9847 1.21277 87.9847 2.44957C87.9847 9.32086 93.5613 14.8974 100.433 14.8974C101.669 14.8974 102.682 15.9102 102.682 17.147V57.1241C102.682 88.8544 81.7729 116.213 52.094 125.129ZM52.094 125.129L52.1514 125.32M52.094 125.129C52.0939 125.129 52.0939 125.129 52.0939 125.129L52.1514 125.32M52.1514 125.32C51.9065 125.394 51.686 125.418 51.4411 125.418C51.1961 125.418 50.9511 125.394 50.7307 125.32C20.307 116.183 0 88.2826 0 57.1241V17.147C0 15.7998 1.10231 14.6974 2.44957 14.6974C9.2104 14.6974 14.6974 9.2104 14.6974 2.44957C14.6974 1.10231 15.7998 0 17.147 0H85.7351C87.0824 0 88.1847 1.10231 88.1847 2.44957C88.1847 9.2104 93.6717 14.6974 100.433 14.6974C101.78 14.6974 102.882 15.7998 102.882 17.147V57.1241C102.882 88.944 81.9138 116.379 52.1514 125.32ZM51.3815 120.612L51.4411 120.631L51.5006 120.612C79.4603 111.89 98.183 86.4595 98.183 57.1241V19.4251V19.2518L98.0114 19.2272C90.6036 18.162 84.7201 12.2785 83.655 4.87068L83.6303 4.69915H83.457H19.4251H19.2518L19.2272 4.87068C18.162 12.2785 12.2785 18.162 4.87068 19.2272L4.69915 19.2518V19.4251V57.1241C4.69915 86.3126 23.6424 111.963 51.3815 120.612Z" fill="#151515" stroke="#FFD41A" stroke-width="0.4"/>
		<path d="M76.6043 14.6063L76.5486 14.4975H76.4263H61.2389C60.0021 14.4975 58.9893 13.4847 58.9893 12.2479C58.9893 11.0111 60.0021 9.99834 61.2389 9.99834H77.9695C78.8686 9.99834 79.6794 10.538 80.04 11.3485C82.2893 16.514 86.3677 20.5924 91.5331 22.8417C92.3436 23.2022 92.8834 24.0131 92.8834 24.9122V57.1241C92.8834 83.3232 76.6717 106.127 52.1822 114.795L52.1822 114.794L52.1747 114.797C51.9568 114.885 51.6887 114.93 51.4406 114.93C51.1959 114.93 50.9496 114.886 50.7006 114.795L50.6989 114.794C26.1852 106.127 9.99785 83.2989 9.99785 57.1241V24.9122C9.99785 24.013 10.5377 23.2021 11.3483 22.8416C16.4889 20.5924 20.5919 16.4897 22.8168 11.3485C23.1774 10.538 23.9882 9.99834 24.8872 9.99834H41.6423C42.8791 9.99834 43.8919 11.0111 43.8919 12.2479C43.8919 13.4847 42.8791 14.4975 41.6423 14.4975H26.455H26.3327L26.2769 14.6063C23.6995 19.6396 19.6391 23.7 14.6058 26.2774L14.497 26.3332V26.4554V57.1241C14.497 81.1888 28.9278 101.938 51.3712 110.247L51.4406 110.273L51.51 110.247C73.9535 101.938 88.3842 81.1888 88.3842 57.1241V26.4554V26.3332L88.2754 26.2774C83.2421 23.7 79.1817 19.6396 76.6043 14.6063Z" fill="#151515" stroke="#FFD41A" stroke-width="0.4"/>
		<path d="M29.5945 57.8101C29.5945 45.7707 39.4013 35.9639 51.4407 35.9639C63.4801 35.9639 73.2869 45.7707 73.2869 57.8101C73.2869 69.8495 63.4801 79.6562 51.4407 79.6562C39.4013 79.6562 29.5945 69.8495 29.5945 57.8101ZM34.0937 57.8101C34.0937 67.3759 41.8749 75.1571 51.4407 75.1571C61.0065 75.1571 68.7877 67.3759 68.7877 57.8101C68.7877 48.2443 61.0065 40.4631 51.4407 40.4631C41.8749 40.4631 34.0937 48.2443 34.0937 57.8101Z" fill="#151515" stroke="#FFD41A" stroke-width="0.4"/>
		<path d="M48.8501 61.8463L48.9915 61.9877L49.1329 61.8463L59.6661 51.3131C60.5433 50.4359 61.9599 50.4359 62.8371 51.3131C63.7143 52.1903 63.7147 53.6321 62.8607 54.5096C62.8604 54.5099 62.8601 54.5102 62.8598 54.5105L50.6156 66.7547C50.1619 67.1849 49.5991 67.4083 49.016 67.4083C48.4275 67.4083 47.8674 67.2058 47.4182 66.7565L42.5191 61.8574C41.6418 60.9802 41.6418 59.5636 42.5191 58.6863C43.3963 57.8091 44.8129 57.8091 45.6901 58.6863L48.8501 61.8463Z" fill="#151515" stroke="#FFD41A" stroke-width="0.4"/>
	</symbol>

	<symbol id="hands" viewBox="0 0 153 129" fill="none">
		<mask id="path-1-inside-1" fill="white">
			<path fill-rule="evenodd" clip-rule="evenodd" d="M144.616 73.7409L149.95 79.0448C151.837 80.9626 152.886 83.4798 152.886 86.1467C152.886 88.8436 151.837 91.3907 149.95 93.2786L117.617 125.582C115.699 127.47 113.182 128.518 110.485 128.518C107.788 128.518 105.241 127.47 103.353 125.582L98.019 120.248C96.1311 118.36 95.0823 115.843 95.0823 113.146C95.0823 111.438 95.5019 109.79 96.3109 108.321L83.9351 95.9455C81.2382 96.2452 78.4813 96.0654 75.9941 95.8856L75.8554 95.876C72.4221 95.639 68.8751 95.3941 67.6037 96.7246L67.5738 96.7546L56.2767 108.052C57.2656 109.64 57.8049 111.468 57.8049 113.386C57.8049 116.083 56.7561 118.63 54.8683 120.517L49.5344 125.851C47.5566 127.799 44.9796 128.788 42.4025 128.788C39.8255 128.788 37.2484 127.799 35.3006 125.851L28.6482 119.199C27.4796 118.03 27.4796 116.112 28.6482 114.944C29.8169 113.775 31.7347 113.775 32.9034 114.944L39.5558 121.596C41.114 123.154 43.6611 123.154 45.2493 121.596L50.6132 116.232C51.3623 115.483 51.7818 114.464 51.7818 113.386C51.7818 112.397 51.4222 111.438 50.763 110.719C50.4633 110.569 50.1637 110.359 49.9239 110.119C49.6842 109.88 49.4745 109.58 49.3246 109.25L18.7296 78.7152C18.4 78.5654 18.1303 78.3856 17.8606 78.1159C17.7455 78.0239 17.6481 77.8965 17.5549 77.7745C17.5267 77.7376 17.4988 77.7012 17.471 77.6664C15.9428 76.7375 13.8751 76.9472 12.5566 78.2657L7.22273 83.5996C6.47358 84.3488 6.05406 85.3676 6.05406 86.4464C6.05406 87.5251 6.47358 88.544 7.22273 89.2931L13.8452 95.9455C15.0138 97.1142 15.0138 99.032 13.8452 100.201C12.6765 101.369 10.7587 101.369 9.59002 100.201L2.93762 93.5782C1.04978 91.6604 0.000976562 89.1433 0.000976562 86.4464C0.000976562 83.7495 1.04978 81.2323 2.93762 79.3145L8.33146 74.0106C11.4179 70.9241 16.0027 70.2649 19.7484 72.0328L29.7869 61.9943L29.3075 61.5149C25.2322 57.4096 25.2322 50.7871 29.3075 46.7118C30.4462 45.5731 31.8246 44.734 33.3229 44.2246C32.1243 42.5166 31.495 40.4789 31.495 38.3214C31.495 35.5345 32.5738 32.8976 34.5515 30.9198C35.9899 29.4815 37.8178 28.5226 39.7955 28.103C39.5258 27.1741 39.376 26.1852 39.376 25.1664C39.376 22.3496 40.4548 19.7426 42.4325 17.7648C43.8709 16.2965 45.6988 15.3376 47.6765 14.9181C47.4068 13.9892 47.257 13.0003 47.257 11.9815C47.257 9.16467 48.3358 6.55765 50.3135 4.57991C53.2801 1.6133 57.5952 0.804227 61.3109 2.15269C61.4608 1.97289 61.6106 1.82306 61.7604 1.67323C64.1577 -0.514266 67.9633 -0.124712 70.9899 0.444638L90.9171 4.16039C93.9436 3.86073 97.09 4.84961 99.4274 7.15697C102.214 9.94378 103.083 13.9592 102.064 17.4952C103.982 17.9147 105.81 18.8436 107.308 20.3419C109.286 22.3196 110.365 24.9267 110.365 27.7434C110.365 28.7623 110.215 29.7512 109.945 30.6801C111.923 31.0996 113.721 32.0585 115.189 33.5268C117.167 35.5046 118.246 38.1116 118.246 40.9284C118.246 41.9472 118.096 42.9361 117.826 43.865C119.804 44.2845 121.602 45.2435 123.07 46.7118C127.146 50.7871 127.146 57.4395 123.07 61.5149L122.591 61.9943L132.629 72.0328C134.098 71.2238 135.776 70.8043 137.484 70.8043C140.181 70.8043 142.728 71.8531 144.616 73.7409ZM82.9462 8.86502L69.8512 6.37786C67.394 5.89841 66.3452 6.01827 65.9856 6.10817V6.40782C66.1354 8.11587 67.9334 10.8727 70.4205 13.27C72.2484 15.008 73.9265 16.1167 75.1251 16.6861L82.9462 8.86502ZM60.2022 8.29567C58.4642 7.127 56.0969 7.3068 54.5686 8.83505C53.7296 9.67409 53.2801 10.7828 53.2501 11.9515C53.2501 13.1202 53.6996 14.2289 54.5387 15.0679L68.1431 28.6424C68.9822 29.4815 70.0909 29.9309 71.2895 29.9309C72.4882 29.9309 73.5969 29.4815 74.4359 28.6424C75.275 27.8333 75.7245 26.7246 75.7245 25.526C75.7245 24.627 75.4548 23.728 74.9454 23.0089C71.1697 22.0799 67.4239 18.7238 66.2553 17.615C64.6971 16.1167 61.1911 12.401 60.2022 8.29567ZM49.8041 20.7015C48.6354 20.7015 47.5267 21.151 46.6876 21.99C45.8486 22.8291 45.3691 23.9378 45.3991 25.1065C45.3991 26.3051 45.8486 27.4138 46.6876 28.2529L49.2947 30.8599L49.3246 30.8899L57.6251 39.1904C58.4642 40.0294 59.5729 40.4789 60.7715 40.4789C61.9702 40.4789 63.0789 40.0294 63.9179 39.1904C65.656 37.4823 65.656 34.6655 63.9179 32.9275L52.9505 21.99C52.1114 21.151 51.0027 20.7015 49.8041 20.7015ZM41.9231 33.8864C40.7244 33.8864 39.6157 34.3359 38.7767 35.175C37.9376 36.014 37.4881 37.1227 37.4881 38.2914C37.4881 39.49 37.9376 40.5988 38.7767 41.4378L44.0507 46.7118L47.0772 49.7084C47.9162 50.5474 49.025 50.9969 50.2236 50.9969C51.4222 50.9969 52.531 50.5474 53.37 49.7084C54.209 48.8993 54.6585 47.7905 54.6585 46.5919C54.6585 45.4232 54.209 44.3145 53.37 43.4755L45.0395 35.145C44.2005 34.3359 43.0917 33.8864 41.9231 33.8864ZM36.6491 49.7084C35.4505 49.7084 34.3417 50.1578 33.5027 50.9969C31.7947 52.7049 31.7947 55.5217 33.5027 57.1998L36.1097 59.8068L36.1397 59.8368V59.8667L36.5292 60.2563C37.3683 61.0953 38.477 61.5448 39.6756 61.5448C40.8743 61.5448 41.983 61.0953 42.822 60.2563C43.6611 59.4472 44.1106 58.3085 44.1106 57.1399C44.1106 55.9712 43.6611 54.8625 42.822 54.0234L39.7955 50.9969C38.9565 50.1578 37.8477 49.7084 36.6491 49.7084ZM97.574 78.8342C94.1471 81.9966 91.2302 84.8148 90.7673 85.2777L88.0704 87.9447C85.5435 90.4715 80.9818 90.1672 76.521 89.8696L76.4137 89.8625L76.3415 89.8576C71.5094 89.5294 66.5089 89.1898 63.2887 92.4995L52.1714 103.587L24.3631 75.8385L34.1919 66.0097C35.8101 66.9986 37.6979 67.538 39.6457 67.538C42.4625 67.538 45.0695 66.4592 47.0472 64.4815C49.025 62.5037 50.1037 59.8967 50.1037 57.0799V56.99H50.1936C52.9804 56.99 55.6174 55.9113 57.5952 53.9335C59.5729 51.9558 60.6517 49.3488 60.6517 46.532V46.4421H60.7416C63.5284 46.4421 66.1654 45.3633 68.1431 43.3856C70.2108 41.3179 71.2296 38.621 71.1996 35.9241H71.2895C74.1063 35.9241 76.7133 34.8453 78.6911 32.8676C80.6688 30.8899 81.7476 28.2828 81.7476 25.466C81.7476 23.5183 81.2082 21.6304 80.2193 20.0123L88.8495 11.3821C89.4787 10.7529 90.2878 10.3333 91.1269 10.1835C91.1718 10.1835 91.2168 10.176 91.2617 10.1685C91.3067 10.161 91.3516 10.1535 91.3966 10.1535C92.715 9.97375 94.1234 10.3933 95.1423 11.3821C96.8803 13.1202 96.8803 15.9369 95.1423 17.645L92.5053 20.252L92.4753 20.282L89.4488 23.3085C88.2801 24.4772 88.2801 26.395 89.4488 27.5637C90.6174 28.7323 92.5353 28.7323 93.7039 27.5637L96.3409 24.9267L96.7305 24.5371C98.4685 22.8291 101.255 22.8291 102.993 24.5671C103.832 25.4061 104.282 26.5149 104.282 27.6835C104.282 28.8821 103.832 29.9909 102.993 30.8L100.386 33.5568L97.3597 36.5534C96.1911 37.722 96.1611 39.6399 97.3597 40.8085C98.5284 41.9772 100.446 42.0072 101.615 40.8085L104.641 37.782C105.48 36.9429 106.589 36.4935 107.788 36.4935C108.986 36.4935 110.095 36.9429 110.934 37.782C111.773 38.621 112.223 39.7298 112.223 40.8984C112.223 42.097 111.773 43.2058 110.934 44.0149L105.66 49.2888C104.492 50.4575 104.492 52.3753 105.66 53.544C106.26 54.1433 107.009 54.413 107.788 54.413C108.567 54.413 109.346 54.1133 109.915 53.514L112.492 50.937C112.492 50.937 112.522 50.907 112.552 50.907C113.391 50.0679 114.5 49.6185 115.699 49.6185C116.897 49.6185 118.006 50.0679 118.845 50.907C120.583 52.615 120.553 55.4318 118.845 57.1698L116.208 59.7769L112.043 63.9421C111.973 64.0118 111.82 64.1623 111.594 64.3843C109.761 66.1827 103.15 72.6698 97.574 78.8342ZM96.6885 87.5718C100.804 83.9905 105.608 78.8237 108.482 75.7328C109.649 74.4774 110.498 73.5645 110.853 73.2393C111.692 72.4707 113.87 70.171 115.66 68.2801C116.718 67.1631 117.64 66.1889 118.072 65.7572L128.105 75.9284L100.296 103.677L90.3478 93.7281C91.037 93.2786 91.6962 92.7692 92.3255 92.1399L95.0224 89.4729C95.2232 89.2825 95.8288 88.5916 96.6885 87.5718ZM113.331 121.327L145.695 89.0234C146.444 88.2743 146.863 87.2555 146.833 86.1467C146.833 85.068 146.414 84.0491 145.665 83.3L140.331 77.996C139.581 77.2469 138.563 76.8274 137.484 76.8274C136.405 76.8274 135.386 77.2469 134.637 77.996L102.304 110.299C101.555 111.048 101.135 112.067 101.135 113.146C101.135 114.225 101.555 115.243 102.304 115.993L107.638 121.327C108.387 122.076 109.406 122.495 110.485 122.495C111.564 122.495 112.582 122.076 113.331 121.327ZM117.576 74.4149H117.244L117.115 74.7209C116.604 75.9358 116.385 76.8894 116.413 77.6047C116.441 78.3319 116.739 78.9135 117.343 79.133C117.888 79.3312 118.504 79.1596 119.021 78.8621C119.555 78.554 120.078 78.0603 120.491 77.4412C120.833 76.9275 120.984 76.4157 120.863 75.932C120.742 75.4507 120.386 75.132 120.018 74.9275C119.297 74.5275 118.268 74.4149 117.576 74.4149ZM117.412 77.5662C117.395 77.1104 117.521 76.414 117.909 75.4245C118.481 75.4568 119.12 75.5729 119.532 75.8019C119.772 75.9348 119.866 76.0659 119.893 76.1749C119.92 76.2816 119.916 76.5006 119.659 76.8865C119.322 77.3919 118.908 77.7727 118.521 77.9956C118.116 78.2291 117.827 78.2448 117.685 78.1932C117.601 78.1628 117.431 78.0572 117.412 77.5662Z"/>
		</mask>
		<path fill-rule="evenodd" clip-rule="evenodd" d="M144.616 73.7409L149.95 79.0448C151.837 80.9626 152.886 83.4798 152.886 86.1467C152.886 88.8436 151.837 91.3907 149.95 93.2786L117.617 125.582C115.699 127.47 113.182 128.518 110.485 128.518C107.788 128.518 105.241 127.47 103.353 125.582L98.019 120.248C96.1311 118.36 95.0823 115.843 95.0823 113.146C95.0823 111.438 95.5019 109.79 96.3109 108.321L83.9351 95.9455C81.2382 96.2452 78.4813 96.0654 75.9941 95.8856L75.8554 95.876C72.4221 95.639 68.8751 95.3941 67.6037 96.7246L67.5738 96.7546L56.2767 108.052C57.2656 109.64 57.8049 111.468 57.8049 113.386C57.8049 116.083 56.7561 118.63 54.8683 120.517L49.5344 125.851C47.5566 127.799 44.9796 128.788 42.4025 128.788C39.8255 128.788 37.2484 127.799 35.3006 125.851L28.6482 119.199C27.4796 118.03 27.4796 116.112 28.6482 114.944C29.8169 113.775 31.7347 113.775 32.9034 114.944L39.5558 121.596C41.114 123.154 43.6611 123.154 45.2493 121.596L50.6132 116.232C51.3623 115.483 51.7818 114.464 51.7818 113.386C51.7818 112.397 51.4222 111.438 50.763 110.719C50.4633 110.569 50.1637 110.359 49.9239 110.119C49.6842 109.88 49.4745 109.58 49.3246 109.25L18.7296 78.7152C18.4 78.5654 18.1303 78.3856 17.8606 78.1159C17.7455 78.0239 17.6481 77.8965 17.5549 77.7745C17.5267 77.7376 17.4988 77.7012 17.471 77.6664C15.9428 76.7375 13.8751 76.9472 12.5566 78.2657L7.22273 83.5996C6.47358 84.3488 6.05406 85.3676 6.05406 86.4464C6.05406 87.5251 6.47358 88.544 7.22273 89.2931L13.8452 95.9455C15.0138 97.1142 15.0138 99.032 13.8452 100.201C12.6765 101.369 10.7587 101.369 9.59002 100.201L2.93762 93.5782C1.04978 91.6604 0.000976562 89.1433 0.000976562 86.4464C0.000976562 83.7495 1.04978 81.2323 2.93762 79.3145L8.33146 74.0106C11.4179 70.9241 16.0027 70.2649 19.7484 72.0328L29.7869 61.9943L29.3075 61.5149C25.2322 57.4096 25.2322 50.7871 29.3075 46.7118C30.4462 45.5731 31.8246 44.734 33.3229 44.2246C32.1243 42.5166 31.495 40.4789 31.495 38.3214C31.495 35.5345 32.5738 32.8976 34.5515 30.9198C35.9899 29.4815 37.8178 28.5226 39.7955 28.103C39.5258 27.1741 39.376 26.1852 39.376 25.1664C39.376 22.3496 40.4548 19.7426 42.4325 17.7648C43.8709 16.2965 45.6988 15.3376 47.6765 14.9181C47.4068 13.9892 47.257 13.0003 47.257 11.9815C47.257 9.16467 48.3358 6.55765 50.3135 4.57991C53.2801 1.6133 57.5952 0.804227 61.3109 2.15269C61.4608 1.97289 61.6106 1.82306 61.7604 1.67323C64.1577 -0.514266 67.9633 -0.124712 70.9899 0.444638L90.9171 4.16039C93.9436 3.86073 97.09 4.84961 99.4274 7.15697C102.214 9.94378 103.083 13.9592 102.064 17.4952C103.982 17.9147 105.81 18.8436 107.308 20.3419C109.286 22.3196 110.365 24.9267 110.365 27.7434C110.365 28.7623 110.215 29.7512 109.945 30.6801C111.923 31.0996 113.721 32.0585 115.189 33.5268C117.167 35.5046 118.246 38.1116 118.246 40.9284C118.246 41.9472 118.096 42.9361 117.826 43.865C119.804 44.2845 121.602 45.2435 123.07 46.7118C127.146 50.7871 127.146 57.4395 123.07 61.5149L122.591 61.9943L132.629 72.0328C134.098 71.2238 135.776 70.8043 137.484 70.8043C140.181 70.8043 142.728 71.8531 144.616 73.7409ZM82.9462 8.86502L69.8512 6.37786C67.394 5.89841 66.3452 6.01827 65.9856 6.10817V6.40782C66.1354 8.11587 67.9334 10.8727 70.4205 13.27C72.2484 15.008 73.9265 16.1167 75.1251 16.6861L82.9462 8.86502ZM60.2022 8.29567C58.4642 7.127 56.0969 7.3068 54.5686 8.83505C53.7296 9.67409 53.2801 10.7828 53.2501 11.9515C53.2501 13.1202 53.6996 14.2289 54.5387 15.0679L68.1431 28.6424C68.9822 29.4815 70.0909 29.9309 71.2895 29.9309C72.4882 29.9309 73.5969 29.4815 74.4359 28.6424C75.275 27.8333 75.7245 26.7246 75.7245 25.526C75.7245 24.627 75.4548 23.728 74.9454 23.0089C71.1697 22.0799 67.4239 18.7238 66.2553 17.615C64.6971 16.1167 61.1911 12.401 60.2022 8.29567ZM49.8041 20.7015C48.6354 20.7015 47.5267 21.151 46.6876 21.99C45.8486 22.8291 45.3691 23.9378 45.3991 25.1065C45.3991 26.3051 45.8486 27.4138 46.6876 28.2529L49.2947 30.8599L49.3246 30.8899L57.6251 39.1904C58.4642 40.0294 59.5729 40.4789 60.7715 40.4789C61.9702 40.4789 63.0789 40.0294 63.9179 39.1904C65.656 37.4823 65.656 34.6655 63.9179 32.9275L52.9505 21.99C52.1114 21.151 51.0027 20.7015 49.8041 20.7015ZM41.9231 33.8864C40.7244 33.8864 39.6157 34.3359 38.7767 35.175C37.9376 36.014 37.4881 37.1227 37.4881 38.2914C37.4881 39.49 37.9376 40.5988 38.7767 41.4378L44.0507 46.7118L47.0772 49.7084C47.9162 50.5474 49.025 50.9969 50.2236 50.9969C51.4222 50.9969 52.531 50.5474 53.37 49.7084C54.209 48.8993 54.6585 47.7905 54.6585 46.5919C54.6585 45.4232 54.209 44.3145 53.37 43.4755L45.0395 35.145C44.2005 34.3359 43.0917 33.8864 41.9231 33.8864ZM36.6491 49.7084C35.4505 49.7084 34.3417 50.1578 33.5027 50.9969C31.7947 52.7049 31.7947 55.5217 33.5027 57.1998L36.1097 59.8068L36.1397 59.8368V59.8667L36.5292 60.2563C37.3683 61.0953 38.477 61.5448 39.6756 61.5448C40.8743 61.5448 41.983 61.0953 42.822 60.2563C43.6611 59.4472 44.1106 58.3085 44.1106 57.1399C44.1106 55.9712 43.6611 54.8625 42.822 54.0234L39.7955 50.9969C38.9565 50.1578 37.8477 49.7084 36.6491 49.7084ZM97.574 78.8342C94.1471 81.9966 91.2302 84.8148 90.7673 85.2777L88.0704 87.9447C85.5435 90.4715 80.9818 90.1672 76.521 89.8696L76.4137 89.8625L76.3415 89.8576C71.5094 89.5294 66.5089 89.1898 63.2887 92.4995L52.1714 103.587L24.3631 75.8385L34.1919 66.0097C35.8101 66.9986 37.6979 67.538 39.6457 67.538C42.4625 67.538 45.0695 66.4592 47.0472 64.4815C49.025 62.5037 50.1037 59.8967 50.1037 57.0799V56.99H50.1936C52.9804 56.99 55.6174 55.9113 57.5952 53.9335C59.5729 51.9558 60.6517 49.3488 60.6517 46.532V46.4421H60.7416C63.5284 46.4421 66.1654 45.3633 68.1431 43.3856C70.2108 41.3179 71.2296 38.621 71.1996 35.9241H71.2895C74.1063 35.9241 76.7133 34.8453 78.6911 32.8676C80.6688 30.8899 81.7476 28.2828 81.7476 25.466C81.7476 23.5183 81.2082 21.6304 80.2193 20.0123L88.8495 11.3821C89.4787 10.7529 90.2878 10.3333 91.1269 10.1835C91.1718 10.1835 91.2168 10.176 91.2617 10.1685C91.3067 10.161 91.3516 10.1535 91.3966 10.1535C92.715 9.97375 94.1234 10.3933 95.1423 11.3821C96.8803 13.1202 96.8803 15.9369 95.1423 17.645L92.5053 20.252L92.4753 20.282L89.4488 23.3085C88.2801 24.4772 88.2801 26.395 89.4488 27.5637C90.6174 28.7323 92.5353 28.7323 93.7039 27.5637L96.3409 24.9267L96.7305 24.5371C98.4685 22.8291 101.255 22.8291 102.993 24.5671C103.832 25.4061 104.282 26.5149 104.282 27.6835C104.282 28.8821 103.832 29.9909 102.993 30.8L100.386 33.5568L97.3597 36.5534C96.1911 37.722 96.1611 39.6399 97.3597 40.8085C98.5284 41.9772 100.446 42.0072 101.615 40.8085L104.641 37.782C105.48 36.9429 106.589 36.4935 107.788 36.4935C108.986 36.4935 110.095 36.9429 110.934 37.782C111.773 38.621 112.223 39.7298 112.223 40.8984C112.223 42.097 111.773 43.2058 110.934 44.0149L105.66 49.2888C104.492 50.4575 104.492 52.3753 105.66 53.544C106.26 54.1433 107.009 54.413 107.788 54.413C108.567 54.413 109.346 54.1133 109.915 53.514L112.492 50.937C112.492 50.937 112.522 50.907 112.552 50.907C113.391 50.0679 114.5 49.6185 115.699 49.6185C116.897 49.6185 118.006 50.0679 118.845 50.907C120.583 52.615 120.553 55.4318 118.845 57.1698L116.208 59.7769L112.043 63.9421C111.973 64.0118 111.82 64.1623 111.594 64.3843C109.761 66.1827 103.15 72.6698 97.574 78.8342ZM96.6885 87.5718C100.804 83.9905 105.608 78.8237 108.482 75.7328C109.649 74.4774 110.498 73.5645 110.853 73.2393C111.692 72.4707 113.87 70.171 115.66 68.2801C116.718 67.1631 117.64 66.1889 118.072 65.7572L128.105 75.9284L100.296 103.677L90.3478 93.7281C91.037 93.2786 91.6962 92.7692 92.3255 92.1399L95.0224 89.4729C95.2232 89.2825 95.8288 88.5916 96.6885 87.5718ZM113.331 121.327L145.695 89.0234C146.444 88.2743 146.863 87.2555 146.833 86.1467C146.833 85.068 146.414 84.0491 145.665 83.3L140.331 77.996C139.581 77.2469 138.563 76.8274 137.484 76.8274C136.405 76.8274 135.386 77.2469 134.637 77.996L102.304 110.299C101.555 111.048 101.135 112.067 101.135 113.146C101.135 114.225 101.555 115.243 102.304 115.993L107.638 121.327C108.387 122.076 109.406 122.495 110.485 122.495C111.564 122.495 112.582 122.076 113.331 121.327ZM117.576 74.4149H117.244L117.115 74.7209C116.604 75.9358 116.385 76.8894 116.413 77.6047C116.441 78.3319 116.739 78.9135 117.343 79.133C117.888 79.3312 118.504 79.1596 119.021 78.8621C119.555 78.554 120.078 78.0603 120.491 77.4412C120.833 76.9275 120.984 76.4157 120.863 75.932C120.742 75.4507 120.386 75.132 120.018 74.9275C119.297 74.5275 118.268 74.4149 117.576 74.4149ZM117.412 77.5662C117.395 77.1104 117.521 76.414 117.909 75.4245C118.481 75.4568 119.12 75.5729 119.532 75.8019C119.772 75.9348 119.866 76.0659 119.893 76.1749C119.92 76.2816 119.916 76.5006 119.659 76.8865C119.322 77.3919 118.908 77.7727 118.521 77.9956C118.116 78.2291 117.827 78.2448 117.685 78.1932C117.601 78.1628 117.431 78.0572 117.412 77.5662Z" fill="#151515"/>
		<path d="M149.95 79.0448L150.449 78.5537L150.443 78.5485L149.95 79.0448ZM144.616 73.7409L144.121 74.2359L144.122 74.2373L144.616 73.7409ZM149.95 93.2786L150.444 93.7738L150.445 93.7735L149.95 93.2786ZM117.617 125.582L118.108 126.081L118.111 126.077L117.617 125.582ZM98.019 120.248L97.524 120.743L98.019 120.248ZM96.3109 108.321L96.924 108.659L97.1779 108.198L96.8059 107.826L96.3109 108.321ZM83.9351 95.9455L84.43 95.4506L84.1922 95.2127L83.8578 95.2498L83.9351 95.9455ZM75.9941 95.8856L76.0446 95.1874L76.0423 95.1873L75.9941 95.8856ZM75.8554 95.876L75.8072 96.5744H75.8072L75.8554 95.876ZM67.6037 96.7246L68.0987 97.2196L68.1043 97.214L68.1098 97.2082L67.6037 96.7246ZM67.5738 96.7546L67.0788 96.2596L67.5738 96.7546ZM56.2767 108.052L55.7817 107.557L55.3886 107.95L55.6825 108.422L56.2767 108.052ZM54.8683 120.517L55.3633 121.012L54.8683 120.517ZM49.5344 125.851L50.0256 126.35L50.0294 126.346L49.5344 125.851ZM35.3006 125.851L35.7956 125.356L35.3006 125.851ZM28.6482 119.199L29.1432 118.704L28.6482 119.199ZM32.9034 114.944L33.3984 114.449L32.9034 114.944ZM39.5558 121.596L40.0508 121.101L39.5558 121.596ZM45.2493 121.596L45.7395 122.096L45.7443 122.091L45.2493 121.596ZM50.6132 116.232L51.1081 116.727L50.6132 116.232ZM50.763 110.719L51.279 110.246L51.1916 110.15L51.076 110.093L50.763 110.719ZM49.9239 110.119L49.429 110.614L49.429 110.614L49.9239 110.119ZM49.3246 109.25L49.9619 108.961L49.9092 108.845L49.8191 108.755L49.3246 109.25ZM18.7296 78.7152L19.2241 78.2198L19.1345 78.1303L19.0192 78.078L18.7296 78.7152ZM17.8606 78.1159L18.3555 77.6209L18.3281 77.5935L18.2979 77.5693L17.8606 78.1159ZM17.5549 77.7745L16.9988 78.1996L16.9988 78.1997L17.5549 77.7745ZM17.471 77.6664L18.0176 77.2291L17.9403 77.1325L17.8346 77.0683L17.471 77.6664ZM12.5566 78.2657L13.0516 78.7607H13.0516L12.5566 78.2657ZM7.22273 83.5996L6.72775 83.1047H6.72775L7.22273 83.5996ZM7.22273 89.2931L7.71882 88.7993L7.7177 88.7982L7.22273 89.2931ZM13.8452 95.9455L13.3491 96.4394L13.3502 96.4405L13.8452 95.9455ZM13.8452 100.201L14.3401 100.696H14.3401L13.8452 100.201ZM9.59002 100.201L10.085 99.7057L10.0839 99.7046L9.59002 100.201ZM2.93762 93.5782L2.43874 94.0693L2.44376 94.0743L2.93762 93.5782ZM2.93762 79.3145L2.44676 78.8153L2.43876 78.8235L2.93762 79.3145ZM8.33146 74.0106L8.82227 74.5097L8.82643 74.5056L8.33146 74.0106ZM19.7484 72.0328L19.4496 72.6659L19.8951 72.8761L20.2434 72.5278L19.7484 72.0328ZM29.7869 61.9943L30.2819 62.4893L30.7769 61.9943L30.2819 61.4993L29.7869 61.9943ZM29.3075 61.5149L28.8107 62.008L28.8125 62.0098L29.3075 61.5149ZM29.3075 46.7118L29.8025 47.2068L29.8025 47.2067L29.3075 46.7118ZM33.3229 44.2246L33.5482 44.8874L34.4322 44.5868L33.8959 43.8225L33.3229 44.2246ZM34.5515 30.9198L34.0565 30.4248L34.5515 30.9198ZM39.7955 28.103L39.9408 28.7878L40.6778 28.6315L40.4678 27.9079L39.7955 28.103ZM42.4325 17.7648L42.9275 18.2598L42.9325 18.2547L42.4325 17.7648ZM47.6765 14.9181L47.8218 15.6029L48.5588 15.4465L48.3487 14.7229L47.6765 14.9181ZM50.3135 4.57991L50.8085 5.07489L50.3135 4.57991ZM61.3109 2.15269L61.0721 2.8107L61.5341 2.97834L61.8487 2.60082L61.3109 2.15269ZM61.7604 1.67323L61.2886 1.15615L61.2768 1.16694L61.2654 1.17826L61.7604 1.67323ZM70.9899 0.444638L70.8605 1.13257L70.8616 1.13278L70.9899 0.444638ZM90.9171 4.16039L90.7888 4.84853L90.8868 4.86681L90.9861 4.85699L90.9171 4.16039ZM99.4274 7.15697L99.9224 6.66198L99.9191 6.65881L99.4274 7.15697ZM102.064 17.4952L101.392 17.3013L101.185 18.0193L101.915 18.179L102.064 17.4952ZM107.308 20.3419L107.803 19.8469V19.8469L107.308 20.3419ZM109.945 30.6801L109.273 30.4849L109.063 31.2085L109.8 31.3649L109.945 30.6801ZM115.189 33.5268L115.684 33.0319L115.189 33.5268ZM117.826 43.865L117.154 43.6699L116.944 44.3934L117.681 44.5498L117.826 43.865ZM123.07 46.7118L123.565 46.2168L123.07 46.7118ZM123.07 61.5149L123.565 62.0098L123.07 61.5149ZM122.591 61.9943L122.096 61.4993L121.601 61.9943L122.096 62.4893L122.591 61.9943ZM132.629 72.0328L132.134 72.5278L132.506 72.8998L132.967 72.6459L132.629 72.0328ZM69.8512 6.37786L69.7171 7.06491L69.7206 7.06556L69.8512 6.37786ZM82.9462 8.86502L83.4412 9.35999L84.3769 8.42424L83.0768 8.17731L82.9462 8.86502ZM65.9856 6.10817L65.8158 5.42907L65.2856 5.56162V6.10817H65.9856ZM65.9856 6.40782H65.2856V6.43847L65.2883 6.46899L65.9856 6.40782ZM70.4205 13.27L69.9347 13.774L69.9382 13.7773L70.4205 13.27ZM75.1251 16.6861L74.8248 17.3184L75.2709 17.5303L75.6201 17.1811L75.1251 16.6861ZM54.5686 8.83505L54.0737 8.34008V8.34008L54.5686 8.83505ZM60.2022 8.29567L60.8827 8.13174L60.8189 7.86683L60.5928 7.71478L60.2022 8.29567ZM53.2501 11.9515L52.5504 11.9335L52.5501 11.9425V11.9515H53.2501ZM54.5387 15.0679L54.0437 15.5629L54.0442 15.5634L54.5387 15.0679ZM68.1431 28.6424L68.6381 28.1474L68.6376 28.1469L68.1431 28.6424ZM74.4359 28.6424L73.95 28.1384L73.941 28.1474L74.4359 28.6424ZM74.9454 23.0089L75.5166 22.6042L75.3658 22.3914L75.1126 22.3291L74.9454 23.0089ZM66.2553 17.615L65.7701 18.1196L65.7735 18.1228L66.2553 17.615ZM45.3991 25.1065H46.0991V25.0975L46.0989 25.0885L45.3991 25.1065ZM46.6876 28.2529L47.1826 27.7579V27.7579L46.6876 28.2529ZM49.2947 30.8599L48.7997 31.3549L48.7997 31.3549L49.2947 30.8599ZM49.3246 30.8899L49.8196 30.3949L49.8196 30.3949L49.3246 30.8899ZM57.6251 39.1904L57.1302 39.6853L57.6251 39.1904ZM63.9179 39.1904L63.4273 38.6911L63.423 38.6954L63.9179 39.1904ZM63.9179 32.9275L64.4129 32.4325L64.4122 32.4319L63.9179 32.9275ZM52.9505 21.99L52.4555 22.485L52.4562 22.4857L52.9505 21.99ZM38.7767 35.175L39.2716 35.6699V35.6699L38.7767 35.175ZM38.7767 41.4378L38.2817 41.9328L38.7767 41.4378ZM44.0507 46.7118L43.5557 47.2068L43.5581 47.2092L44.0507 46.7118ZM47.0772 49.7084L47.5722 49.2134L47.5697 49.2109L47.0772 49.7084ZM53.37 49.7084L52.884 49.2044L52.875 49.2134L53.37 49.7084ZM45.0395 35.145L45.5346 34.6499L45.5254 34.6411L45.0395 35.145ZM33.5027 50.9969L33.9977 51.4919L33.5027 50.9969ZM33.5027 57.1998L33.9977 56.7048L33.9933 56.7005L33.5027 57.1998ZM36.1097 59.8068L35.6147 60.3018L35.6148 60.3019L36.1097 59.8068ZM36.1397 59.8368H36.8397V59.5468L36.6346 59.3417L36.1397 59.8368ZM36.1397 59.8667H35.4397V60.1567L35.6447 60.3617L36.1397 59.8667ZM36.5292 60.2563L36.0343 60.7513V60.7513L36.5292 60.2563ZM42.822 60.2563L42.3361 59.7523L42.3271 59.7613L42.822 60.2563ZM42.822 54.0234L42.3271 54.5184V54.5184L42.822 54.0234ZM39.7955 50.9969L40.2905 50.5019V50.5019L39.7955 50.9969ZM97.574 78.8342L98.0488 79.3486L98.072 79.3272L98.0932 79.3038L97.574 78.8342ZM90.7673 85.2777L91.2595 85.7755L91.2622 85.7727L90.7673 85.2777ZM88.0704 87.9447L87.5781 87.4469L87.5754 87.4497L88.0704 87.9447ZM76.521 89.8696L76.5676 89.1712H76.5676L76.521 89.8696ZM76.4137 89.8625L76.3663 90.5609L76.3671 90.5609L76.4137 89.8625ZM76.3415 89.8576L76.2941 90.556L76.2941 90.556L76.3415 89.8576ZM63.2887 92.4995L63.783 92.9952L63.7904 92.9876L63.2887 92.4995ZM52.1714 103.587L51.6769 104.082L52.1712 104.576L52.6657 104.082L52.1714 103.587ZM24.3631 75.8385L23.8682 75.3435L23.3727 75.839L23.8687 76.334L24.3631 75.8385ZM34.1919 66.0097L34.5569 65.4124L34.0867 65.125L33.6969 65.5148L34.1919 66.0097ZM47.0472 64.4815L47.5422 64.9764L47.0472 64.4815ZM50.1037 56.99V56.29H49.4037V56.99H50.1037ZM60.6517 46.4421V45.7421H59.9517V46.4421H60.6517ZM68.1431 43.3856L67.6481 42.8906L68.1431 43.3856ZM71.1996 35.9241V35.2241H70.4918L70.4997 35.9319L71.1996 35.9241ZM78.6911 32.8676L79.1861 33.3626L78.6911 32.8676ZM80.2193 20.0123L79.7243 19.5173L79.3346 19.907L79.622 20.3773L80.2193 20.0123ZM88.8495 11.3821L89.3444 11.8771V11.8771L88.8495 11.3821ZM91.1269 10.1835V9.48351H91.0648L91.0038 9.49441L91.1269 10.1835ZM91.2617 10.1685L91.1466 9.47805L91.1466 9.47805L91.2617 10.1685ZM91.3966 10.1535V10.8535H91.4441L91.4911 10.8471L91.3966 10.1535ZM95.1423 11.3821L95.6373 10.8871L95.6298 10.8798L95.1423 11.3821ZM95.1423 17.645L94.6516 17.1457L94.6501 17.1472L95.1423 17.645ZM92.5053 20.252L92.0131 19.7542L92.0103 19.7571L92.5053 20.252ZM92.4753 20.282L92.9703 20.7769L92.9704 20.7769L92.4753 20.282ZM89.4488 23.3085L89.9438 23.8035V23.8035L89.4488 23.3085ZM89.4488 27.5637L89.9438 27.0687V27.0687L89.4488 27.5637ZM93.7039 27.5637L93.2089 27.0687L93.7039 27.5637ZM96.3409 24.9267L96.8359 25.4216L96.8359 25.4216L96.3409 24.9267ZM96.7305 24.5371L96.2398 24.0378L96.2355 24.0421L96.7305 24.5371ZM102.993 24.5671L102.498 25.062V25.0621L102.993 24.5671ZM102.993 30.8L102.507 30.2961L102.496 30.3073L102.485 30.319L102.993 30.8ZM100.386 33.5568L100.879 34.0542L100.887 34.0461L100.895 34.0378L100.386 33.5568ZM97.3597 36.5534L96.8672 36.0559L96.8648 36.0584L97.3597 36.5534ZM97.3597 40.8085L97.8548 40.3135L97.8484 40.3073L97.3597 40.8085ZM101.615 40.8085L101.12 40.3135L101.114 40.3199L101.615 40.8085ZM104.641 37.782L104.146 37.287L104.641 37.782ZM110.934 37.782L110.439 38.2769V38.277L110.934 37.782ZM110.934 44.0149L110.448 43.5109L110.439 43.5199L110.934 44.0149ZM105.66 49.2888L105.165 48.7939V48.7939L105.66 49.2888ZM105.66 53.544L106.155 53.049L106.155 53.049L105.66 53.544ZM109.915 53.514L109.42 53.019L109.414 53.0254L109.408 53.0319L109.915 53.514ZM112.492 50.937L112.987 51.4319L112.492 50.937ZM112.552 50.907V51.607H112.842L113.047 51.402L112.552 50.907ZM118.845 50.907L118.35 51.402L118.355 51.4062L118.845 50.907ZM118.845 57.1698L119.337 57.6677L119.344 57.6605L118.845 57.1698ZM116.208 59.7769L115.716 59.279L115.713 59.2819L116.208 59.7769ZM112.043 63.9421L112.538 64.4371L112.538 64.4371L112.043 63.9421ZM111.594 64.3843L111.103 63.8847L111.594 64.3843ZM96.6885 87.5718L96.229 87.0437L96.1881 87.0793L96.1533 87.1206L96.6885 87.5718ZM108.482 75.7328L108.995 76.2095H108.995L108.482 75.7328ZM110.853 73.2393L111.326 73.7554V73.7554L110.853 73.2393ZM115.66 68.2801L115.152 67.7988L115.66 68.2801ZM118.072 65.7572L118.57 65.2657L118.075 64.7639L117.577 65.2623L118.072 65.7572ZM128.105 75.9284L128.599 76.4239L129.092 75.9323L128.603 75.4368L128.105 75.9284ZM100.296 103.677L99.8014 104.172L100.296 104.666L100.791 104.172L100.296 103.677ZM90.3478 93.7281L89.9654 93.1417L89.2428 93.613L89.8528 94.223L90.3478 93.7281ZM92.3255 92.1399L91.8333 91.6421L91.8305 91.6449L92.3255 92.1399ZM95.0224 89.4729L94.5406 88.9651L94.5354 88.9701L94.5302 88.9752L95.0224 89.4729ZM145.695 89.0234L146.189 89.5189L146.189 89.5184L145.695 89.0234ZM113.331 121.327L112.837 120.831L112.837 120.832L113.331 121.327ZM146.833 86.1467H146.133V86.1562L146.133 86.1656L146.833 86.1467ZM145.665 83.3L146.16 82.805L146.158 82.8036L145.665 83.3ZM140.331 77.996L139.836 78.491L139.837 78.4924L140.331 77.996ZM134.637 77.996L135.132 78.4912L135.132 78.491L134.637 77.996ZM102.304 110.299L101.809 109.804L101.809 109.804L102.304 110.299ZM102.304 115.993L101.809 116.488L102.304 115.993ZM107.638 121.327L107.143 121.822V121.822L107.638 121.327ZM117.244 74.4149V73.7149H116.779L116.599 74.1433L117.244 74.4149ZM117.115 74.7209L116.47 74.4493V74.4493L117.115 74.7209ZM116.413 77.6047L115.713 77.6316V77.6316L116.413 77.6047ZM117.343 79.133L117.104 79.7908L117.343 79.133ZM119.021 78.8621L118.671 78.2556L118.671 78.2556L119.021 78.8621ZM120.491 77.4412L119.909 77.0529L119.909 77.0529L120.491 77.4412ZM120.863 75.932L120.184 76.102L120.863 75.932ZM120.018 74.9275L120.357 74.3154L120.357 74.3154L120.018 74.9275ZM117.909 75.4245L117.948 74.7256L117.442 74.697L117.257 75.1693L117.909 75.4245ZM117.412 77.5662L118.112 77.5393L118.112 77.5393L117.412 77.5662ZM119.532 75.8019L119.872 75.1898L119.872 75.1898L119.532 75.8019ZM119.893 76.1749L119.214 76.345L119.214 76.345L119.893 76.1749ZM119.659 76.8865L119.076 76.4983L119.659 76.8865ZM118.521 77.9956L118.871 78.6021L118.871 78.6021L118.521 77.9956ZM117.685 78.1932L117.445 78.851H117.445L117.685 78.1932ZM150.443 78.5485L145.109 73.2445L144.122 74.2373L149.456 79.5412L150.443 78.5485ZM153.586 86.1467C153.586 83.292 152.462 80.5996 150.449 78.5538L149.451 79.5359C151.213 81.3257 152.186 83.6676 152.186 86.1467H153.586ZM150.445 93.7735C152.465 91.7529 153.586 89.0272 153.586 86.1467H152.186C152.186 88.6601 151.21 91.0285 149.455 92.7836L150.445 93.7735ZM118.111 126.077L150.444 93.7738L149.455 92.7834L117.122 125.086L118.111 126.077ZM110.485 129.218C113.368 129.218 116.061 128.095 118.108 126.081L117.126 125.083C115.337 126.844 112.995 127.818 110.485 127.818V129.218ZM102.858 126.077C104.879 128.097 107.604 129.218 110.485 129.218V127.818C107.971 127.818 105.603 126.842 103.848 125.087L102.858 126.077ZM97.524 120.743L102.858 126.077L103.848 125.087L98.514 119.753L97.524 120.743ZM94.3823 113.146C94.3823 116.029 95.505 118.724 97.524 120.743L98.514 119.753C96.7573 117.996 95.7823 115.657 95.7823 113.146H94.3823ZM95.6978 107.984C94.8306 109.557 94.3823 111.322 94.3823 113.146H95.7823C95.7823 111.554 96.1731 110.022 96.924 108.659L95.6978 107.984ZM83.4401 96.4405L95.816 108.816L96.8059 107.826L84.43 95.4506L83.4401 96.4405ZM75.9437 96.5838C78.4256 96.7632 81.2431 96.949 84.0124 96.6412L83.8578 95.2498C81.2333 95.5414 78.537 95.3676 76.0446 95.1874L75.9437 96.5838ZM75.8072 96.5744L75.946 96.5839L76.0423 95.1873L75.9036 95.1777L75.8072 96.5744ZM68.1098 97.2082C68.3098 96.999 68.6393 96.8123 69.1379 96.6708C69.6326 96.5303 70.2447 96.4479 70.9546 96.4116C72.3789 96.3387 74.0784 96.455 75.8072 96.5744L75.9036 95.1777C74.1991 95.06 72.4085 94.9353 70.8831 95.0134C70.1181 95.0525 69.3906 95.1436 68.7554 95.324C68.124 95.5033 67.5334 95.785 67.0976 96.241L68.1098 97.2082ZM68.0687 97.2496L68.0987 97.2196L67.1088 96.2297L67.0788 96.2596L68.0687 97.2496ZM56.7717 108.547L68.0687 97.2496L67.0788 96.2596L55.7817 107.557L56.7717 108.547ZM58.5049 113.386C58.5049 111.334 57.9276 109.379 56.8709 107.682L55.6825 108.422C56.6035 109.901 57.1049 111.601 57.1049 113.386H58.5049ZM55.3633 121.012C57.3839 118.992 58.5049 116.266 58.5049 113.386H57.1049C57.1049 115.899 56.1284 118.267 54.3733 120.022L55.3633 121.012ZM50.0294 126.346L55.3633 121.012L54.3733 120.022L49.0394 125.356L50.0294 126.346ZM42.4025 129.488C45.1587 129.488 47.9135 128.43 50.0256 126.35L49.0432 125.353C47.1997 127.168 44.8005 128.088 42.4025 128.088V129.488ZM34.8057 126.346C36.89 128.431 39.6474 129.488 42.4025 129.488V128.088C40.0036 128.088 37.6069 127.168 35.7956 125.356L34.8057 126.346ZM28.1533 119.694L34.8057 126.346L35.7956 125.356L29.1432 118.704L28.1533 119.694ZM28.1533 114.449C26.7112 115.891 26.7112 118.252 28.1533 119.694L29.1432 118.704C28.2479 117.809 28.2479 116.334 29.1432 115.439L28.1533 114.449ZM33.3984 114.449C31.9563 113.007 29.5953 113.007 28.1533 114.449L29.1432 115.439C30.0385 114.544 31.5131 114.544 32.4084 115.439L33.3984 114.449ZM40.0508 121.101L33.3984 114.449L32.4084 115.439L39.0608 122.091L40.0508 121.101ZM44.759 121.097C43.4405 122.39 41.333 122.384 40.0508 121.101L39.0608 122.091C40.895 123.925 43.8817 123.919 45.7395 122.096L44.759 121.097ZM50.1182 115.737L44.7543 121.101L45.7443 122.091L51.1081 116.727L50.1182 115.737ZM51.0818 113.386C51.0818 114.282 50.734 115.122 50.1182 115.737L51.1081 116.727C51.9906 115.845 52.4818 114.647 52.4818 113.386H51.0818ZM50.247 111.192C50.7827 111.776 51.0818 112.564 51.0818 113.386H52.4818C52.4818 112.229 52.0617 111.1 51.279 110.246L50.247 111.192ZM49.429 110.614C49.7263 110.912 50.0888 111.164 50.4499 111.345L51.076 110.093C50.8378 109.973 50.601 109.806 50.4189 109.624L49.429 110.614ZM48.6874 109.54C48.8717 109.946 49.1296 110.315 49.429 110.614L50.4189 109.624C50.2389 109.444 50.0772 109.214 49.9619 108.961L48.6874 109.54ZM18.2351 79.2107L48.8301 109.746L49.8191 108.755L19.2241 78.2198L18.2351 79.2107ZM17.3656 78.6109C17.6986 78.9439 18.0391 79.1703 18.4399 79.3525L19.0192 78.078C18.7608 77.9605 18.5619 77.8273 18.3555 77.6209L17.3656 78.6109ZM16.9988 78.1997C17.0803 78.3063 17.2291 78.5072 17.4233 78.6625L18.2979 77.5693C18.2619 77.5406 18.216 77.4867 18.111 77.3493L16.9988 78.1997ZM16.9244 78.1037C16.9466 78.1314 16.9697 78.1616 16.9988 78.1996L18.111 77.3493C18.0837 77.3136 18.0511 77.271 18.0176 77.2291L16.9244 78.1037ZM13.0516 78.7607C14.1384 77.674 15.8506 77.5006 17.1074 78.2646L17.8346 77.0683C16.0349 75.9743 13.6119 76.2205 12.0617 77.7708L13.0516 78.7607ZM7.7177 84.0946L13.0516 78.7607L12.0617 77.7708L6.72775 83.1047L7.7177 84.0946ZM6.75406 86.4464C6.75406 85.5503 7.10188 84.7104 7.7177 84.0946L6.72775 83.1047C5.84529 83.9871 5.35406 85.1849 5.35406 86.4464H6.75406ZM7.7177 88.7982C7.10188 88.1823 6.75406 87.3424 6.75406 86.4464H5.35406C5.35406 87.7079 5.84529 88.9056 6.72775 89.7881L7.7177 88.7982ZM14.3412 95.4517L7.71882 88.7993L6.72663 89.787L13.3491 96.4394L14.3412 95.4517ZM14.3401 100.696C15.7822 99.2536 15.7822 96.8926 14.3401 95.4506L13.3502 96.4405C14.2455 97.3358 14.2455 98.8104 13.3502 99.7057L14.3401 100.696ZM9.09505 100.696C10.5371 102.138 12.8981 102.138 14.3401 100.696L13.3502 99.7057C12.4549 100.601 10.9803 100.601 10.085 99.7057L9.09505 100.696ZM2.44376 94.0743L9.09616 100.697L10.0839 99.7046L3.43148 93.0821L2.44376 94.0743ZM-0.699023 86.4464C-0.699023 89.33 0.42411 92.0227 2.43876 94.0693L3.43648 93.0872C1.67545 91.2982 0.700977 88.9566 0.700977 86.4464H-0.699023ZM2.43876 78.8235C0.424109 80.8701 -0.699023 83.5628 -0.699023 86.4464H0.700977C0.700977 83.9361 1.67545 81.5946 3.43648 79.8056L2.43876 78.8235ZM7.84066 73.5115L2.44682 78.8154L3.42842 79.8136L8.82226 74.5097L7.84066 73.5115ZM20.0472 71.3998C16.0435 69.5101 11.139 70.2131 7.83648 73.5156L8.82643 74.5056C11.6969 71.6351 15.9619 71.0197 19.4496 72.6659L20.0472 71.3998ZM29.292 61.4993L19.2534 71.5379L20.2434 72.5278L30.2819 62.4893L29.292 61.4993ZM28.8125 62.0098L29.292 62.4893L30.2819 61.4993L29.8025 61.0199L28.8125 62.0098ZM28.8125 46.2168C24.4628 50.5665 24.4654 57.6308 28.8107 62.008L29.8043 61.0217C25.9989 57.1883 26.0015 51.0077 29.8025 47.2068L28.8125 46.2168ZM33.0976 43.5619C31.5014 44.1046 30.0297 44.9996 28.8125 46.2168L29.8025 47.2067C30.8626 46.1466 32.1478 45.3635 33.5482 44.8874L33.0976 43.5619ZM30.795 38.3214C30.795 40.617 31.4654 42.7962 32.7499 44.6267L33.8959 43.8225C32.7832 42.2369 32.195 40.3408 32.195 38.3214H30.795ZM34.0565 30.4248C31.9461 32.5352 30.795 35.3509 30.795 38.3214H32.195C32.195 35.7182 33.2014 33.2599 35.0465 31.4148L34.0565 30.4248ZM39.6503 27.4183C37.5466 27.8645 35.5953 28.8861 34.0565 30.4248L35.0465 31.4148C36.3844 30.0768 38.0889 29.1806 39.9408 28.7878L39.6503 27.4183ZM38.676 25.1664C38.676 26.2538 38.8359 27.3084 39.1233 28.2982L40.4678 27.9079C40.2157 27.0398 40.076 26.1166 40.076 25.1664H38.676ZM41.9375 17.2699C39.8279 19.3795 38.676 22.1649 38.676 25.1664H40.076C40.076 22.5344 41.0816 20.1057 42.9275 18.2598L41.9375 17.2699ZM47.5313 14.2333C45.427 14.6797 43.4731 15.7022 41.9324 17.275L42.9325 18.2547C44.2686 16.8908 45.9705 15.9956 47.8218 15.6029L47.5313 14.2333ZM46.557 11.9815C46.557 13.0689 46.7169 14.1234 47.0043 15.1133L48.3487 14.7229C48.0967 13.8549 47.957 12.9317 47.957 11.9815H46.557ZM49.8185 4.08494C47.7089 6.19459 46.557 8.97992 46.557 11.9815H47.957C47.957 9.34943 48.9626 6.92072 50.8085 5.07489L49.8185 4.08494ZM61.5497 1.49468C57.5893 0.0574343 52.9854 0.918101 49.8185 4.08494L50.8085 5.07489C53.5749 2.3085 57.601 1.55102 61.0721 2.8107L61.5497 1.49468ZM61.2654 1.17826C61.1177 1.32602 60.9462 1.49695 60.7732 1.70456L61.8487 2.60082C61.9753 2.44884 62.1035 2.32011 62.2554 2.16821L61.2654 1.17826ZM71.1193 -0.243295C69.5906 -0.530868 67.8131 -0.784078 66.0942 -0.673437C64.3726 -0.562618 62.646 -0.0824855 61.2886 1.15615L62.2323 2.19031C63.2721 1.24145 64.647 0.822613 66.1841 0.723672C67.724 0.624552 69.3626 0.850794 70.8605 1.13257L71.1193 -0.243295ZM91.0454 3.47225L71.1182 -0.243501L70.8616 1.13278L90.7888 4.84853L91.0454 3.47225ZM99.9191 6.65881C97.4259 4.19758 94.0707 3.14473 90.8481 3.4638L90.9861 4.85699C93.8166 4.57674 96.7541 5.50163 98.9356 7.65513L99.9191 6.65881ZM102.737 17.689C103.822 13.9217 102.899 9.63871 99.9223 6.66199L98.9324 7.65194C101.529 10.2489 102.344 13.9967 101.392 17.3013L102.737 17.689ZM107.803 19.8469C106.204 18.2472 104.253 17.2574 102.214 16.8113L101.915 18.179C103.711 18.572 105.417 19.44 106.813 20.8369L107.803 19.8469ZM111.065 27.7434C111.065 24.7419 109.913 21.9566 107.803 19.8469L106.813 20.8369C108.659 22.6827 109.665 25.1114 109.665 27.7434H111.065ZM110.618 30.8753C110.905 29.8854 111.065 28.8309 111.065 27.7434H109.665C109.665 28.6937 109.525 29.6169 109.273 30.4849L110.618 30.8753ZM115.684 33.0319C114.119 31.4666 112.199 30.4426 110.091 29.9953L109.8 31.3649C111.647 31.7566 113.323 32.6505 114.694 34.0218L115.684 33.0319ZM118.946 40.9284C118.946 37.9269 117.794 35.1415 115.684 33.0319L114.694 34.0218C116.54 35.8676 117.546 38.2964 117.546 40.9284H118.946ZM118.499 44.0602C118.786 43.0704 118.946 42.0158 118.946 40.9284H117.546C117.546 41.8786 117.406 42.8018 117.154 43.6699L118.499 44.0602ZM123.565 46.2168C122 44.6515 120.08 43.6275 117.972 43.1803L117.681 44.5498C119.528 44.9416 121.204 45.8354 122.575 47.2068L123.565 46.2168ZM123.565 62.0098C127.914 57.6611 127.914 50.5655 123.565 46.2168L122.575 47.2068C126.377 51.0087 126.377 57.2179 122.575 61.0199L123.565 62.0098ZM123.086 62.4893L123.565 62.0098L122.575 61.0199L122.096 61.4993L123.086 62.4893ZM133.124 71.5379L123.086 61.4993L122.096 62.4893L132.134 72.5278L133.124 71.5379ZM137.484 70.1043C135.662 70.1043 133.867 70.5515 132.292 71.4198L132.967 72.6459C134.328 71.896 135.889 71.5042 137.484 71.5042V70.1043ZM145.111 73.2459C143.09 71.2253 140.364 70.1043 137.484 70.1043V71.5042C139.997 71.5042 142.366 72.4808 144.121 74.2359L145.111 73.2459ZM69.7206 7.06556L82.8156 9.55272L83.0768 8.17731L69.9818 5.69015L69.7206 7.06556ZM66.1554 6.78727C66.3697 6.73369 67.3007 6.59341 69.7171 7.0649L69.9852 5.69082C67.4873 5.20341 66.3207 5.30285 65.8158 5.42907L66.1554 6.78727ZM66.6856 6.40782V6.10817H65.2856V6.40782H66.6856ZM70.9063 12.766C69.6961 11.5995 68.6604 10.3517 67.914 9.19979C67.1542 8.02722 66.7427 7.0281 66.6829 6.34666L65.2883 6.46899C65.3783 7.4956 65.9407 8.72892 66.7391 9.9611C67.5509 11.214 68.6578 12.5432 69.9347 13.774L70.9063 12.766ZM75.4255 16.0538C74.3059 15.522 72.6878 14.4598 70.9029 12.7627L69.9382 13.7773C71.8091 15.5562 73.5472 16.7115 74.8248 17.3184L75.4255 16.0538ZM82.4512 8.37004L74.6302 16.1911L75.6201 17.1811L83.4412 9.35999L82.4512 8.37004ZM55.0636 9.33003C56.3492 8.04447 58.3442 7.88988 59.8116 8.87656L60.5928 7.71478C58.5841 6.36413 55.8446 6.56912 54.0737 8.34008L55.0636 9.33003ZM53.9499 11.9694C53.9755 10.9708 54.3579 10.0357 55.0636 9.33003L54.0737 8.34008C53.1013 9.31247 52.5847 10.5949 52.5504 11.9335L53.9499 11.9694ZM55.0336 14.573C54.3276 13.8669 53.9501 12.937 53.9501 11.9515H52.5501C52.5501 13.3033 53.0716 14.5908 54.0437 15.5629L55.0336 14.573ZM68.6376 28.1469L55.0331 14.5724L54.0442 15.5634L67.6487 29.1379L68.6376 28.1469ZM71.2895 29.2309C70.2715 29.2309 69.3424 28.8517 68.6381 28.1474L67.6481 29.1374C68.622 30.1112 69.9103 30.6309 71.2895 30.6309V29.2309ZM73.941 28.1474C73.2367 28.8517 72.3075 29.2309 71.2895 29.2309V30.6309C72.6688 30.6309 73.9571 30.1112 74.9309 29.1374L73.941 28.1474ZM75.0245 25.526C75.0245 26.5464 74.644 27.4694 73.95 28.1385L74.9218 29.1463C75.906 28.1973 76.4245 26.9028 76.4245 25.526H75.0245ZM74.3741 23.4135C74.794 24.0063 75.0245 24.7617 75.0245 25.526H76.4245C76.4245 24.4923 76.1155 23.4498 75.5166 22.6042L74.3741 23.4135ZM65.7735 18.1228C66.3713 18.6899 67.6272 19.8312 69.2199 20.9518C70.8041 22.0665 72.7676 23.1939 74.7781 23.6886L75.1126 22.3291C73.3475 21.8948 71.5502 20.8797 70.0255 19.8069C68.5092 18.74 67.308 17.6488 66.7371 17.1072L65.7735 18.1228ZM59.5217 8.45959C60.0465 10.6385 61.2283 12.68 62.4507 14.3469C63.6775 16.0198 64.9739 17.354 65.7701 18.1196L66.7405 17.1104C65.9785 16.3778 64.7428 15.105 63.5797 13.519C62.4124 11.9272 61.3467 10.0581 60.8827 8.13174L59.5217 8.45959ZM47.1826 22.485C47.8886 21.779 48.8186 21.4015 49.8041 21.4015V20.0015C48.4522 20.0015 47.1647 20.523 46.1927 21.495L47.1826 22.485ZM46.0989 25.0885C46.0742 24.128 46.4672 23.2004 47.1826 22.485L46.1927 21.495C45.23 22.4577 44.664 23.7476 44.6993 25.1244L46.0989 25.0885ZM47.1826 27.7579C46.4783 27.0536 46.0991 26.1245 46.0991 25.1065H44.6991C44.6991 26.4857 45.2188 27.774 46.1927 28.7478L47.1826 27.7579ZM49.7896 30.3649L47.1826 27.7579L46.1927 28.7478L48.7997 31.3549L49.7896 30.3649ZM49.8196 30.3949L49.7896 30.3649L48.7997 31.3549L48.8297 31.3848L49.8196 30.3949ZM58.1201 38.6954L49.8196 30.3949L48.8296 31.3848L57.1302 39.6853L58.1201 38.6954ZM60.7715 39.7789C59.7536 39.7789 58.8244 39.3997 58.1201 38.6954L57.1302 39.6853C58.104 40.6592 59.3923 41.1789 60.7715 41.1789V39.7789ZM63.423 38.6954C62.7187 39.3997 61.7895 39.7789 60.7715 39.7789V41.1789C62.1508 41.1789 63.4391 40.6592 64.4129 39.6853L63.423 38.6954ZM63.423 33.4225C64.89 34.8895 64.8838 37.2597 63.4273 38.6911L64.4086 39.6896C66.4282 37.7049 66.4219 34.4415 64.4129 32.4325L63.423 33.4225ZM52.4562 22.4857L63.4237 33.4232L64.4122 32.4319L53.4448 21.4944L52.4562 22.4857ZM49.8041 21.4015C50.8221 21.4015 51.7512 21.7807 52.4555 22.485L53.4455 21.495C52.4716 20.5212 51.1833 20.0015 49.8041 20.0015V21.4015ZM39.2716 35.6699C39.9759 34.9657 40.9051 34.5864 41.9231 34.5864V33.1864C40.5438 33.1864 39.2555 33.7062 38.2817 34.68L39.2716 35.6699ZM38.1881 38.2914C38.1881 37.3059 38.5656 36.376 39.2716 35.6699L38.2817 34.68C37.3096 35.652 36.7881 36.9396 36.7881 38.2914H38.1881ZM39.2716 40.9428C38.5674 40.2386 38.1881 39.3094 38.1881 38.2914H36.7881C36.7881 39.6707 37.3079 40.959 38.2817 41.9328L39.2716 40.9428ZM44.5456 46.2168L39.2716 40.9428L38.2817 41.9328L43.5557 47.2068L44.5456 46.2168ZM47.5697 49.2109L44.5432 46.2143L43.5581 47.2092L46.5847 50.2058L47.5697 49.2109ZM50.2236 50.2969C49.2056 50.2969 48.2764 49.9176 47.5722 49.2134L46.5822 50.2033C47.556 51.1771 48.8443 51.6969 50.2236 51.6969V50.2969ZM52.875 49.2134C52.1708 49.9176 51.2416 50.2969 50.2236 50.2969V51.6969C51.6029 51.6969 52.8912 51.1771 53.865 50.2033L52.875 49.2134ZM53.9585 46.5919C53.9585 47.6123 53.578 48.5353 52.8841 49.2045L53.8559 50.2122C54.8401 49.2632 55.3585 47.9688 55.3585 46.5919H53.9585ZM52.875 43.9705C53.581 44.6765 53.9585 45.6064 53.9585 46.5919H55.3585C55.3585 45.2401 54.837 43.9526 53.865 42.9805L52.875 43.9705ZM44.5445 35.64L52.875 43.9705L53.865 42.9805L45.5345 34.65L44.5445 35.64ZM41.9231 34.5864C42.9099 34.5864 43.8446 34.9652 44.5536 35.6489L45.5254 34.6411C44.5563 33.7066 43.2735 33.1864 41.9231 33.1864V34.5864ZM33.9977 51.4919C34.7019 50.7876 35.6311 50.4084 36.6491 50.4084V49.0084C35.2698 49.0084 33.9815 49.5281 33.0077 50.5019L33.9977 51.4919ZM33.9933 56.7005C32.5669 55.2991 32.5606 52.929 33.9977 51.4919L33.0077 50.5019C31.0288 52.4809 31.0224 55.7443 33.0121 57.6991L33.9933 56.7005ZM36.6047 59.3118L33.9977 56.7048L33.0077 57.6948L35.6147 60.3018L36.6047 59.3118ZM36.6346 59.3417L36.6046 59.3118L35.6148 60.3019L35.6448 60.3318L36.6346 59.3417ZM36.8397 59.8667V59.8368H35.4397V59.8667H36.8397ZM37.0242 59.7613L36.6347 59.3718L35.6447 60.3617L36.0343 60.7513L37.0242 59.7613ZM39.6756 60.8448C38.6577 60.8448 37.7285 60.4656 37.0242 59.7613L36.0343 60.7513C37.0081 61.7251 38.2964 62.2448 39.6756 62.2448V60.8448ZM42.3271 59.7613C41.6228 60.4656 40.6936 60.8448 39.6756 60.8448V62.2448C41.0549 62.2448 42.3432 61.7251 43.317 60.7513L42.3271 59.7613ZM43.4106 57.1399C43.4106 58.1329 43.0283 59.085 42.3362 59.7524L43.3079 60.7602C44.2939 59.8095 44.8106 58.4841 44.8106 57.1399H43.4106ZM42.3271 54.5184C43.0331 55.2244 43.4106 56.1544 43.4106 57.1399H44.8106C44.8106 55.788 44.2891 54.5005 43.317 53.5285L42.3271 54.5184ZM39.3005 51.4919L42.3271 54.5184L43.317 53.5285L40.2905 50.5019L39.3005 51.4919ZM36.6491 50.4084C37.6671 50.4084 38.5963 50.7876 39.3005 51.4919L40.2905 50.5019C39.3167 49.5281 38.0284 49.0084 36.6491 49.0084V50.4084ZM97.0993 78.3197C93.6687 81.4855 90.7443 84.3107 90.2723 84.7827L91.2622 85.7727C91.716 85.3189 94.6255 82.5077 98.0488 79.3486L97.0993 78.3197ZM90.2751 84.78L87.5781 87.4469L88.5626 88.4424L91.2595 85.7754L90.2751 84.78ZM87.5754 87.4497C86.4767 88.5484 84.8937 89.0744 82.9509 89.2698C81.0064 89.4654 78.8125 89.3209 76.5676 89.1712L76.4744 90.5681C78.6903 90.7159 81.0077 90.8723 83.091 90.6628C85.176 90.453 87.1372 89.8678 88.5653 88.4396L87.5754 87.4497ZM76.5676 89.1712L76.4603 89.164L76.3671 90.5609L76.4744 90.5681L76.5676 89.1712ZM76.4611 89.1641L76.3889 89.1592L76.2941 90.556L76.3663 90.5609L76.4611 89.1641ZM76.3889 89.1592C73.9883 88.9961 71.4591 88.8219 69.1221 89.1199C66.7689 89.42 64.5437 90.2058 62.787 92.0113L63.7904 92.9876C65.2539 91.4834 67.139 90.7842 69.2992 90.5087C71.4755 90.2311 73.8626 90.3908 76.2941 90.556L76.3889 89.1592ZM62.7944 92.0038L51.6771 103.091L52.6657 104.082L63.783 92.9951L62.7944 92.0038ZM52.6658 103.091L24.8576 75.343L23.8687 76.334L51.6769 104.082L52.6658 103.091ZM24.8581 76.3335L34.6869 66.5047L33.6969 65.5148L23.8682 75.3435L24.8581 76.3335ZM33.8269 66.607C35.5547 67.6629 37.5689 68.238 39.6457 68.238V66.838C37.8269 66.838 36.0654 66.3343 34.5569 65.4124L33.8269 66.607ZM39.6457 68.238C42.6472 68.238 45.4325 67.0861 47.5422 64.9764L46.5522 63.9865C44.7064 65.8323 42.2777 66.838 39.6457 66.838V68.238ZM47.5422 64.9764C49.6518 62.8668 50.8037 60.0815 50.8037 57.0799H49.4037C49.4037 59.712 48.3981 62.1407 46.5522 63.9865L47.5422 64.9764ZM50.8037 57.0799V56.99H49.4037V57.0799H50.8037ZM50.1037 57.69H50.1936V56.29H50.1037V57.69ZM50.1936 57.69C53.1641 57.69 55.9797 56.5389 58.0901 54.4285L57.1002 53.4385C55.2551 55.2836 52.7968 56.29 50.1936 56.29V57.69ZM58.0901 54.4285C60.1998 52.3189 61.3517 49.5335 61.3517 46.532H59.9517C59.9517 49.164 58.946 51.5927 57.1002 53.4385L58.0901 54.4285ZM61.3517 46.532V46.4421H59.9517V46.532H61.3517ZM60.6517 47.1421H60.7416V45.7421H60.6517V47.1421ZM60.7416 47.1421C63.7121 47.1421 66.5277 45.991 68.6381 43.8806L67.6481 42.8906C65.8031 44.7357 63.3447 45.7421 60.7416 45.7421V47.1421ZM68.6381 43.8806C70.8429 41.6757 71.9316 38.7958 71.8996 35.9163L70.4997 35.9319C70.5276 38.4462 69.5786 40.9601 67.6481 42.8906L68.6381 43.8806ZM71.1996 36.6241H71.2895V35.2241H71.1996V36.6241ZM71.2895 36.6241C74.2911 36.6241 77.0764 35.4722 79.1861 33.3626L78.1961 32.3726C76.3503 34.2184 73.9216 35.2241 71.2895 35.2241V36.6241ZM79.1861 33.3626C81.2957 31.2529 82.4476 28.4676 82.4476 25.466H81.0476C81.0476 28.0981 80.0419 30.5268 78.1961 32.3726L79.1861 33.3626ZM82.4476 25.466C82.4476 23.3892 81.8725 21.3751 80.8166 19.6473L79.622 20.3773C80.5439 21.8857 81.0476 23.6473 81.0476 25.466H82.4476ZM80.7143 20.5073L89.3444 11.8771L88.3545 10.8872L79.7243 19.5173L80.7143 20.5073ZM89.3444 11.8771C89.8738 11.3478 90.5535 10.997 91.2499 10.8726L91.0038 9.49441C90.0221 9.66971 89.0837 10.1579 88.3545 10.8872L89.3444 11.8771ZM91.1269 10.8835C91.2396 10.8835 91.3421 10.8648 91.3768 10.859L91.1466 9.47805C91.1348 9.48002 91.1271 9.48131 91.1199 9.48242C91.1132 9.48348 91.1094 9.48399 91.1075 9.48423C91.1056 9.48447 91.1066 9.4843 91.1097 9.48408C91.1128 9.48385 91.1187 9.48351 91.1269 9.48351V10.8835ZM91.3768 10.859C91.3886 10.857 91.3963 10.8558 91.4035 10.8546C91.4102 10.8536 91.414 10.8531 91.4159 10.8528C91.4178 10.8526 91.4168 10.8528 91.4137 10.853C91.4106 10.8532 91.4047 10.8535 91.3966 10.8535V9.45355C91.2838 9.45355 91.1813 9.47227 91.1466 9.47805L91.3768 10.859ZM91.4911 10.8471C92.6048 10.6953 93.7962 11.0511 94.6547 11.8844L95.6298 10.8798C94.4507 9.73544 92.8253 9.25224 91.302 9.45996L91.4911 10.8471ZM94.6473 11.8771C96.1144 13.3442 96.1081 15.7144 94.6516 17.1457L95.6329 18.1442C97.6525 16.1595 97.6462 12.8961 95.6373 10.8872L94.6473 11.8771ZM94.6501 17.1472L92.0132 19.7542L92.9974 20.7498L95.6344 18.1428L94.6501 17.1472ZM92.0103 19.7571L91.9803 19.787L92.9704 20.7769L93.0003 20.7469L92.0103 19.7571ZM91.9804 19.787L88.9538 22.8135L89.9438 23.8035L92.9703 20.7769L91.9804 19.787ZM88.9538 22.8135C87.5118 24.2556 87.5118 26.6166 88.9538 28.0586L89.9438 27.0687C89.0485 26.1734 89.0485 24.6988 89.9438 23.8035L88.9538 22.8135ZM88.9538 28.0586C90.3958 29.5007 92.7569 29.5007 94.1989 28.0586L93.2089 27.0687C92.3136 27.964 90.8391 27.964 89.9438 27.0687L88.9538 28.0586ZM94.1989 28.0586L96.8359 25.4216L95.8459 24.4317L93.2089 27.0687L94.1989 28.0586ZM96.8359 25.4216L97.2254 25.0321L96.2355 24.0421L95.8459 24.4317L96.8359 25.4216ZM97.2211 25.0364C98.6861 23.5967 101.033 23.5967 102.498 25.062L103.488 24.0721C101.478 22.0614 98.2509 22.0614 96.2398 24.0379L97.2211 25.0364ZM102.498 25.0621C103.204 25.7681 103.582 26.698 103.582 27.6835H104.982C104.982 26.3317 104.46 25.0442 103.488 24.0721L102.498 25.0621ZM103.582 27.6835C103.582 28.7039 103.201 29.6269 102.507 30.2961L103.479 31.3038C104.463 30.3548 104.982 29.0604 104.982 27.6835H103.582ZM102.485 30.319L99.8777 33.0758L100.895 34.0378L103.502 31.2809L102.485 30.319ZM99.8938 33.0594L96.8672 36.056L97.8522 37.0508L100.879 34.0542L99.8938 33.0594ZM96.8648 36.0584C95.4308 37.4923 95.3826 39.8584 96.8711 41.3097L97.8484 40.3073C96.9396 39.4213 96.9513 37.9518 97.8547 37.0484L96.8648 36.0584ZM96.8648 41.3035C98.2987 42.7374 100.665 42.7857 102.116 41.2972L101.114 40.3199C100.228 41.2286 98.7581 41.217 97.8547 40.3135L96.8648 41.3035ZM102.11 41.3035L105.136 38.277L104.146 37.287L101.12 40.3135L102.11 41.3035ZM105.136 38.277C105.841 37.5727 106.77 37.1935 107.788 37.1935V35.7934C106.409 35.7934 105.12 36.3132 104.146 37.287L105.136 38.277ZM107.788 37.1935C108.806 37.1935 109.735 37.5727 110.439 38.2769L111.429 37.287C110.455 36.3132 109.167 35.7934 107.788 35.7934V37.1935ZM110.439 38.277C111.145 38.983 111.523 39.9129 111.523 40.8984H112.923C112.923 39.5466 112.401 38.2591 111.429 37.287L110.439 38.277ZM111.523 40.8984C111.523 41.9188 111.142 42.8418 110.448 43.511L111.42 44.5187C112.404 43.5697 112.923 42.2753 112.923 40.8984H111.523ZM110.439 43.5199L105.165 48.7939L106.155 49.7838L111.429 44.5098L110.439 43.5199ZM105.165 48.7939C103.723 50.2359 103.723 52.5969 105.165 54.0389L106.155 53.049C105.26 52.1537 105.26 50.6791 106.155 49.7838L105.165 48.7939ZM105.165 54.0389C105.907 54.7806 106.839 55.113 107.788 55.113V53.713C107.178 53.713 106.612 53.506 106.155 53.049L105.165 54.0389ZM107.788 55.113C108.744 55.113 109.711 54.745 110.423 53.9961L109.408 53.0319C108.981 53.4817 108.39 53.713 107.788 53.713V55.113ZM110.41 54.009L112.987 51.4319L111.997 50.442L109.42 53.019L110.41 54.009ZM112.492 50.937C112.987 51.4319 112.987 51.432 112.987 51.4322C112.987 51.4322 112.987 51.4323 112.987 51.4324C112.987 51.4326 112.987 51.4327 112.986 51.4329C112.986 51.4332 112.986 51.4335 112.985 51.4339C112.985 51.4345 112.984 51.4351 112.984 51.4358C112.982 51.4371 112.981 51.4384 112.98 51.4396C112.977 51.4422 112.974 51.4448 112.971 51.4474C112.966 51.4526 112.96 51.4581 112.953 51.4637C112.941 51.4745 112.923 51.4889 112.899 51.5044C112.877 51.5191 112.841 51.5415 112.79 51.5616C112.742 51.5811 112.659 51.607 112.552 51.607V50.207C112.327 50.207 112.169 50.3088 112.123 50.3395C112.088 50.3625 112.061 50.3844 112.042 50.4008C112.032 50.4093 112.023 50.4171 112.016 50.4239C112.013 50.4274 112.009 50.4306 112.006 50.4336C112.004 50.4351 112.003 50.4366 112.002 50.4379C112.001 50.4386 112 50.4393 111.999 50.44C111.999 50.4403 111.999 50.4407 111.998 50.441C111.998 50.4412 111.998 50.4413 111.998 50.4415C111.998 50.4416 111.998 50.4417 111.998 50.4417C111.998 50.4419 111.997 50.442 112.492 50.937ZM113.047 51.402C113.752 50.6977 114.681 50.3185 115.699 50.3185V48.9185C114.32 48.9185 113.031 49.4382 112.057 50.412L113.047 51.402ZM115.699 50.3185C116.717 50.3185 117.646 50.6977 118.35 51.402L119.34 50.412C118.366 49.4382 117.078 48.9185 115.699 48.9185V50.3185ZM118.355 51.4062C119.806 52.8323 119.794 55.2055 118.346 56.6792L119.344 57.6605C121.312 55.6581 121.361 52.3978 119.336 50.4077L118.355 51.4062ZM118.353 56.672L115.716 59.2791L116.7 60.2746L119.337 57.6676L118.353 56.672ZM115.713 59.2819L111.548 63.4471L112.538 64.4371L116.703 60.2718L115.713 59.2819ZM111.548 63.4471C111.481 63.5138 111.331 63.661 111.103 63.8847L112.084 64.8839C112.308 64.6637 112.465 64.5098 112.538 64.4371L111.548 63.4471ZM111.103 63.8847C109.271 65.6825 102.647 72.1829 97.0549 78.3646L98.0932 79.3038C103.654 73.1567 110.251 66.6829 112.084 64.8839L111.103 63.8847ZM97.148 88.0998C101.297 84.4895 106.127 79.2936 108.995 76.2095L107.969 75.2562C105.089 78.3539 100.311 83.4914 96.229 87.0437L97.148 88.0998ZM108.995 76.2095C110.177 74.9374 110.998 74.0559 111.326 73.7554L110.38 72.7231C109.998 73.0731 109.121 74.0175 107.969 75.2562L108.995 76.2095ZM111.326 73.7554C112.189 72.9651 114.391 70.6384 116.168 68.7614L115.152 67.7988C113.348 69.7035 111.195 71.9764 110.38 72.7231L111.326 73.7554ZM116.168 68.7614C117.231 67.6396 118.144 66.6751 118.567 66.2522L117.577 65.2623C117.137 65.7026 116.205 66.6867 115.152 67.7988L116.168 68.7614ZM117.574 66.2488L127.606 76.42L128.603 75.4368L118.57 65.2657L117.574 66.2488ZM127.61 75.4329L99.8019 103.181L100.791 104.172L128.599 76.4239L127.61 75.4329ZM100.791 103.182L90.8427 93.2331L89.8528 94.223L99.8014 104.172L100.791 103.182ZM90.7301 94.3144C91.452 93.8436 92.1508 93.3045 92.8205 92.6349L91.8305 91.6449C91.2416 92.2338 90.622 92.7135 89.9654 93.1417L90.7301 94.3144ZM92.8177 92.6376L95.5146 89.9707L94.5302 88.9752L91.8333 91.6421L92.8177 92.6376ZM95.5042 89.9807C95.7404 89.7567 96.3764 89.0281 97.2237 88.0229L96.1533 87.1206C95.2813 88.1551 94.7059 88.8083 94.5406 88.9651L95.5042 89.9807ZM145.2 88.528L112.837 120.831L113.826 121.822L146.189 89.5189L145.2 88.528ZM146.133 86.1656C146.158 87.0809 145.814 87.9143 145.2 88.5285L146.189 89.5184C147.074 88.6343 147.568 87.43 147.533 86.1278L146.133 86.1656ZM145.17 83.795C145.785 84.4108 146.133 85.2507 146.133 86.1467H147.533C147.533 84.8852 147.042 83.6875 146.16 82.805L145.17 83.795ZM139.837 78.4924L145.171 83.7963L146.158 82.8036L140.824 77.4997L139.837 78.4924ZM137.484 77.5274C138.38 77.5274 139.22 77.8752 139.836 78.491L140.826 77.5011C139.943 76.6186 138.745 76.1274 137.484 76.1274V77.5274ZM135.132 78.491C135.748 77.8752 136.588 77.5274 137.484 77.5274V76.1274C136.222 76.1274 135.025 76.6186 134.142 77.5011L135.132 78.491ZM102.799 110.794L135.132 78.4912L134.142 77.5008L101.809 109.804L102.799 110.794ZM101.835 113.146C101.835 112.25 102.183 111.41 102.799 110.794L101.809 109.804C100.927 110.687 100.435 111.884 100.435 113.146H101.835ZM102.799 115.498C102.183 114.882 101.835 114.042 101.835 113.146H100.435C100.435 114.407 100.927 115.605 101.809 116.488L102.799 115.498ZM108.133 120.832L102.799 115.498L101.809 116.488L107.143 121.822L108.133 120.832ZM110.485 121.795C109.589 121.795 108.749 121.447 108.133 120.832L107.143 121.822C108.025 122.704 109.223 123.195 110.485 123.195V121.795ZM112.837 120.832C112.221 121.447 111.381 121.795 110.485 121.795V123.195C111.746 123.195 112.944 122.704 113.826 121.822L112.837 120.832ZM117.244 75.1149H117.576V73.7149H117.244V75.1149ZM117.76 74.9925L117.889 74.6866L116.599 74.1433L116.47 74.4493L117.76 74.9925ZM117.112 77.5778C117.091 77.0111 117.266 76.1681 117.76 74.9925L116.47 74.4493C115.942 75.7035 115.68 76.7676 115.713 77.6316L117.112 77.5778ZM117.582 78.4751C117.346 78.3893 117.134 78.145 117.112 77.5778L115.713 77.6316C115.748 78.5188 116.133 79.4376 117.104 79.7908L117.582 78.4751ZM118.671 78.2556C118.231 78.509 117.844 78.5704 117.582 78.4751L117.104 79.7908C117.932 80.0921 118.777 79.8102 119.37 79.4686L118.671 78.2556ZM119.909 77.0529C119.549 77.5924 119.102 78.0071 118.671 78.2556L119.37 79.4686C120.008 79.1009 120.608 78.5281 121.073 77.8294L119.909 77.0529ZM120.184 76.102C120.239 76.321 120.192 76.6277 119.909 77.0529L121.073 77.8295C121.475 77.2273 121.729 76.5104 121.542 75.7619L120.184 76.102ZM119.678 75.5396C119.957 75.6946 120.129 75.8822 120.184 76.102L121.542 75.7619C121.356 75.0191 120.815 74.5695 120.357 74.3154L119.678 75.5396ZM117.576 75.1149C118.232 75.1149 119.115 75.2273 119.678 75.5396L120.357 74.3154C119.478 73.8278 118.304 73.7149 117.576 73.7149V75.1149ZM117.257 75.1693C116.853 76.2001 116.69 76.9999 116.713 77.5931L118.112 77.5393C118.099 77.2209 118.189 76.6279 118.561 75.6796L117.257 75.1693ZM119.872 75.1898C119.319 74.8832 118.553 74.7597 117.948 74.7256L117.869 76.1234C118.409 76.1539 118.92 76.2627 119.193 76.414L119.872 75.1898ZM120.572 76.0049C120.48 75.6376 120.205 75.3745 119.872 75.1898L119.193 76.414C119.263 76.453 119.28 76.4741 119.272 76.4658C119.268 76.461 119.257 76.4484 119.246 76.4271C119.234 76.4055 119.222 76.3779 119.214 76.345L120.572 76.0049ZM120.241 77.2748C120.56 76.7972 120.664 76.3736 120.572 76.0048L119.214 76.345C119.196 76.2748 119.208 76.2378 119.204 76.253C119.199 76.2738 119.174 76.3527 119.076 76.4983L120.241 77.2748ZM118.871 78.6021C119.361 78.3196 119.851 77.8598 120.241 77.2748L119.076 76.4983C118.793 76.924 118.455 77.2258 118.172 77.3891L118.871 78.6021ZM117.445 78.851C117.868 79.0047 118.385 78.8819 118.871 78.6021L118.172 77.3891C118.024 77.4742 117.924 77.504 117.874 77.5135C117.849 77.5183 117.84 77.5173 117.846 77.5175C117.851 77.5177 117.879 77.5191 117.924 77.5353L117.445 78.851ZM116.713 77.5931C116.725 77.9094 116.788 78.1872 116.925 78.4144C117.075 78.6635 117.278 78.7901 117.445 78.851L117.924 77.5353C117.957 77.5472 117.999 77.5672 118.04 77.5996C118.082 77.632 118.108 77.6657 118.123 77.6904C118.15 77.7344 118.118 77.714 118.112 77.5393L116.713 77.5931Z" fill="#FFD419" mask="url(#path-1-inside-1)"/>
		<circle cx="21.276" cy="107.892" r="2.4" fill="#151515"/>
	</symbol>

	<symbol id="list" viewBox="0 0 117 124" fill="none">
		<path d="M40.3339 34.5145L38.2277 35.2648C34.9837 36.4266 32.5869 39.2584 31.9333 42.6469L31.2312 46.3743C30.8681 48.2138 31.3523 50.1017 32.5627 51.5539C33.7732 53.0062 35.5405 53.8291 37.4046 53.8291H55.5858C57.4499 53.8291 59.2172 53.0062 60.4035 51.5781C61.5897 50.1501 62.0981 48.2864 61.7592 46.4469L61.1055 42.7438C60.5003 39.3068 58.0794 36.4266 54.7869 35.2406L52.5596 34.4419V31.1743C52.5596 31.0775 52.5596 30.9807 52.5354 30.9081C54.1575 29.2622 55.0774 27.0113 55.0774 24.7119V19.8228C55.0774 15.0546 51.2039 11.182 46.4347 11.182C41.6654 11.182 37.792 15.0546 37.792 19.8228V24.8572C37.792 27.2291 38.7603 29.3833 40.3339 30.9565C40.3339 31.0291 40.3097 31.1017 40.3097 31.1743L40.3339 34.5145ZM57.5226 43.3973L58.1762 47.1004C58.3215 47.875 58.1036 48.6737 57.5952 49.2788C57.0868 49.8839 56.3363 50.2227 55.5616 50.2227H37.3804C36.5815 50.2227 35.831 49.8597 35.3226 49.2546C34.8142 48.6495 34.6205 47.8508 34.7658 47.052L35.4679 43.3246C35.8794 41.1947 37.4046 39.4036 39.4382 38.6775L40.8181 38.1692C40.8423 38.1934 40.8907 38.2419 40.915 38.2661C42.4886 39.6457 44.4495 40.3234 46.4105 40.3234C48.3714 40.3234 50.3324 39.6457 51.906 38.2661C51.9544 38.2176 52.0028 38.1692 52.0755 38.1208L53.528 38.6533C55.61 39.4036 57.1352 41.2189 57.5226 43.3973ZM41.4476 19.8228C41.4476 17.0635 43.699 14.8126 46.4589 14.8126C48.783 14.8126 50.7439 16.41 51.3008 18.5642C51.0587 18.6852 50.8166 18.782 50.5745 18.8788C48.3472 19.7744 46.5315 19.6533 46.0231 19.2903C45.2 18.7094 44.0622 18.903 43.5053 19.7259C42.9243 20.5489 43.118 21.6865 43.9411 22.2431C44.8369 22.8724 46.0231 23.1871 47.4031 23.1871C48.6619 23.1871 50.0419 22.9208 51.446 22.4126V24.6635C51.446 26.0431 50.865 27.3986 49.8724 28.3909C49.4124 28.8508 48.8798 29.1896 48.2988 29.4317C48.2504 29.4559 48.2262 29.4559 48.1777 29.4801C47.5967 29.7221 46.9673 29.8189 46.3378 29.8189C43.6264 29.7705 41.4234 27.5196 41.4234 24.8087L41.4476 19.8228ZM46.2652 33.4737C46.3136 33.4737 46.3863 33.4737 46.4347 33.4737C47.282 33.4737 48.1293 33.3527 48.9282 33.1106V36.0151C47.4031 36.9591 45.4905 36.9591 43.9653 36.0151V33.1106C44.6916 33.3527 45.4663 33.4737 46.2652 33.4737Z" fill="#151515"/>
		<path d="M17.8675 84.931H74.4204C75.413 84.931 76.2361 84.1081 76.2361 83.1157C76.2361 82.1233 75.413 81.3004 74.4204 81.3004H17.8675C16.8749 81.3004 16.0518 82.1233 16.0518 83.1157C16.0518 84.1081 16.8749 84.931 17.8675 84.931Z" fill="#151515"/>
		<path d="M17.8675 94.7094H74.4204C75.413 94.7094 76.2361 93.8865 76.2361 92.8941C76.2361 91.9018 75.413 91.0789 74.4204 91.0789H17.8675C16.8749 91.0789 16.0518 91.9018 16.0518 92.8941C16.0518 93.8865 16.8749 94.7094 17.8675 94.7094Z" fill="#151515"/>
		<path d="M17.8675 104.512H74.4204C75.413 104.512 76.2361 103.689 76.2361 102.697C76.2361 101.704 75.413 100.881 74.4204 100.881H17.8675C16.8749 100.881 16.0518 101.704 16.0518 102.697C16.0518 103.689 16.8749 104.512 17.8675 104.512Z" fill="#151515"/>
		<path d="M17.8675 114.29H74.4204C75.413 114.29 76.2361 113.467 76.2361 112.475C76.2361 111.483 75.413 110.66 74.4204 110.66H17.8675C16.8749 110.66 16.0518 111.483 16.0518 112.475C16.0518 113.467 16.8749 114.29 17.8675 114.29Z" fill="#151515"/>
		<path d="M16.0518 63.5349C16.0518 64.5272 16.8749 65.3502 17.8675 65.3502H74.4204C75.413 65.3502 76.2361 64.5272 76.2361 63.5349C76.2361 62.5425 75.413 61.7196 74.4204 61.7196H17.8675C16.8749 61.7196 16.0518 62.5425 16.0518 63.5349Z" fill="#151515"/>
		<path d="M17.8675 75.1527H74.4204C75.413 75.1527 76.2361 74.3297 76.2361 73.3374C76.2361 72.345 75.413 71.5221 74.4204 71.5221H17.8675C16.8749 71.5221 16.0518 72.345 16.0518 73.3374C16.0518 74.3297 16.8749 75.1527 17.8675 75.1527Z" fill="#151515"/>
		<path d="M11.1858 84.931C12.2026 84.931 13.0015 84.1081 13.0015 83.1157C13.0015 82.0991 12.1784 81.3004 11.1858 81.3004C10.1932 81.3004 9.37012 82.1233 9.37012 83.1157C9.37012 84.1081 10.169 84.931 11.1858 84.931Z" fill="#151515"/>
		<path d="M11.1858 65.3743C12.2026 65.3743 13.0015 64.5514 13.0015 63.5591C13.0015 62.5667 12.1784 61.7438 11.1858 61.7438C10.1932 61.7438 9.37012 62.5667 9.37012 63.5591C9.37012 64.5514 10.169 65.3743 11.1858 65.3743Z" fill="#151515"/>
		<path d="M11.1858 75.1527C12.2026 75.1527 13.0015 74.3297 13.0015 73.3374C13.0015 72.345 12.1784 71.5221 11.1858 71.5221C10.1932 71.5221 9.37012 72.345 9.37012 73.3374C9.37012 74.3297 10.169 75.1527 11.1858 75.1527Z" fill="#151515"/>
		<path d="M11.1858 94.7336C12.2026 94.7336 13.0015 93.9107 13.0015 92.9183C13.0015 91.926 12.1784 91.103 11.1858 91.103C10.1932 91.103 9.37012 91.926 9.37012 92.9183C9.37012 93.9107 10.169 94.7336 11.1858 94.7336Z" fill="#151515"/>
		<path d="M11.1854 104.512C12.2022 104.512 13.0011 103.689 13.0011 102.697C13.0011 101.704 12.1779 100.881 11.1854 100.881C10.1928 100.881 9.36966 101.704 9.36966 102.697C9.34545 103.689 10.1686 104.512 11.1854 104.512Z" fill="#151515"/>
		<path d="M11.1854 114.315C12.2022 114.315 13.0011 113.492 13.0011 112.499C13.0011 111.483 12.1779 110.684 11.1854 110.684C10.1928 110.684 9.36966 111.507 9.36966 112.499C9.34545 113.492 10.1686 114.315 11.1854 114.315Z" fill="#151515"/>
		<path d="M114.075 28.5847C113.349 27.6649 112.647 26.7936 112.308 25.9707C111.945 25.0993 111.8 23.9376 111.654 22.7274C111.388 20.5974 111.098 18.1771 109.403 16.4828C107.708 14.7885 105.287 14.4981 103.157 14.2318C101.946 14.0866 100.784 13.9414 99.9129 13.5783C99.114 13.2395 98.2182 12.5618 97.2982 11.8115C96.0152 10.7949 94.611 9.70572 92.9648 9.19744V8.64076C92.9648 3.89681 89.0913 0 84.2978 0H8.66791C3.89868 0 0.000976562 3.89681 0.000976562 8.66496V15.6599C0.000976562 16.6522 0.824094 17.4751 1.81668 17.4751C2.80926 17.4751 3.63238 16.6522 3.63238 15.6599V8.66496C3.63238 5.88152 5.88384 3.63057 8.66791 3.63057H84.2978C87.0819 3.63057 89.3334 5.88152 89.3334 8.66496V9.22165C87.6629 9.72993 86.283 10.8191 84.9999 11.8357C84.08 12.5618 83.2084 13.2637 82.3853 13.6025C81.5138 13.9656 80.3517 14.1108 79.1413 14.256C77.0108 14.5223 74.5899 14.8127 72.8952 16.507C71.2006 18.2013 70.9101 20.6216 70.6438 22.7516C70.4985 23.9618 70.3533 25.1235 69.9901 25.9949C69.6512 26.7936 68.9733 27.6891 68.2228 28.6089C66.8671 30.3274 65.3177 32.2637 65.3177 34.7567C65.3177 37.2496 66.8671 39.1859 68.2228 40.9044C68.9491 41.8242 69.6512 42.6955 69.9901 43.5184C70.3533 44.3898 70.4985 45.5515 70.6438 46.7617C70.9101 48.8917 71.2006 51.312 72.8952 53.0063C74.5899 54.7006 77.0108 54.991 79.1413 55.2573C79.7707 55.3299 80.4001 55.4025 80.957 55.5235V82.9706C80.957 84.0356 81.5622 85.0037 82.5306 85.4878C83.4989 85.9477 84.6126 85.8509 85.4599 85.1732L89.3092 82.1477V115.283C89.3092 118.066 87.0577 120.317 84.2736 120.317H8.66791C5.88384 120.317 3.63238 118.066 3.63238 115.283V23.6713C3.63238 22.679 2.80926 21.856 1.81668 21.856C0.824094 21.856 0.000976562 22.6548 0.000976562 23.6713V115.258C0.000976562 120.027 3.89868 123.923 8.66791 123.923H84.2978C89.0671 123.923 92.9648 120.027 92.9648 115.258V82.1235L96.8141 85.149C97.3225 85.5362 97.9277 85.7541 98.5329 85.7541C98.9445 85.7541 99.356 85.6572 99.7676 85.4636C100.736 85.0037 101.341 84.0356 101.341 82.9464V62.6878C101.341 61.6955 100.518 60.8725 99.5255 60.8725C98.5329 60.8725 97.7098 61.6955 97.7098 62.6878V81.2279L92.8922 77.4521C92.408 77.0649 91.8027 76.8471 91.1733 76.8471C90.5438 76.8471 89.9386 77.0649 89.4544 77.4279L84.6126 81.2037V57.3388C84.7336 57.4356 84.8789 57.5566 84.9999 57.6534C86.7188 59.0089 88.6555 60.5579 91.1491 60.5579C93.6426 60.5579 95.5794 59.0089 97.2982 57.6534C98.2182 56.9273 99.114 56.2254 99.9129 55.8866C100.784 55.5235 101.946 55.3783 103.157 55.2331C105.287 54.9668 107.708 54.6764 109.403 52.9821C111.098 51.2878 111.388 48.8675 111.654 46.7375C111.8 45.5273 111.945 44.3656 112.308 43.4942C112.647 42.6955 113.325 41.8 114.075 40.8802C115.431 39.1617 116.98 37.2254 116.98 34.7324C116.98 32.2395 115.431 30.3032 114.075 28.5847ZM111.219 38.6535C110.371 39.7426 109.476 40.856 108.943 42.1146C108.386 43.4458 108.217 44.898 108.047 46.3019C107.829 47.9961 107.636 49.6178 106.837 50.4165C106.038 51.2152 104.416 51.4331 102.721 51.6267C101.317 51.7961 99.8644 51.9898 98.5329 52.5222C97.2498 53.0547 96.1362 53.9261 95.071 54.7974C93.6911 55.8866 92.408 56.9031 91.1733 56.9031C89.9386 56.9031 88.6555 55.8866 87.2756 54.7974C86.1862 53.9503 85.0725 53.0547 83.8137 52.5222C83.7168 52.498 83.4263 52.377 83.3537 52.3528C82.1432 51.9413 80.8601 51.7719 79.6254 51.6267C77.9308 51.4089 76.3088 51.2152 75.5099 50.4165C74.7109 49.6178 74.4931 47.9961 74.2994 46.3019C74.1299 44.898 73.9363 43.4458 73.4036 42.1146C72.871 40.8318 71.9995 39.7184 71.128 38.6535C70.0385 37.2738 69.0218 35.991 69.0218 34.7567C69.0218 33.5223 70.0385 32.2395 71.128 30.8598C71.9753 29.7707 72.871 28.6573 73.4036 27.3987C73.9605 26.0675 74.1299 24.6153 74.2994 23.2114C74.5173 21.5172 74.7109 19.8955 75.5099 19.0968C76.3088 18.2981 77.9308 18.0802 79.6254 17.8866C81.0296 17.7172 82.4821 17.5235 83.8137 16.9911C85.0967 16.4586 86.2104 15.5872 87.2756 14.7159C88.6555 13.6267 89.9386 12.6102 91.1733 12.6102C92.408 12.6102 93.6911 13.6267 95.071 14.7159C96.1604 15.563 97.274 16.4586 98.5329 16.9911C99.8644 17.5478 101.317 17.7172 102.721 17.8866C104.416 18.1044 106.038 18.2981 106.837 19.0968C107.636 19.8955 107.854 21.5172 108.047 23.2114C108.217 24.6153 108.41 26.0675 108.943 27.3987C109.476 28.6815 110.347 29.7949 111.219 30.8598C112.308 32.2395 113.325 33.5223 113.325 34.7567C113.349 35.9668 112.308 37.2738 111.219 38.6535Z" fill="#151515"/>
		<path d="M102.818 28.9719L96.6442 27.2292L93.0613 21.9044C92.6255 21.2751 91.9234 20.8878 91.1487 20.8878C90.374 20.8878 89.672 21.2751 89.2362 21.9044L85.6532 27.2292L79.4798 28.9719C78.7535 29.1897 78.1483 29.7464 77.9304 30.4725C77.6883 31.1986 77.8336 31.9974 78.3178 32.6025L82.2881 37.6368L82.046 44.0508C82.0218 44.8254 82.3607 45.5515 82.9902 45.9872C83.3775 46.2776 83.8617 46.4228 84.3459 46.4228C84.6122 46.4228 84.8785 46.3744 85.1448 46.2776L91.1729 44.0508L97.2011 46.2776C97.9273 46.5438 98.7262 46.4228 99.3315 45.9872C99.9609 45.5273 100.3 44.8012 100.276 44.0508L100.034 37.6368L104.004 32.6025C104.488 31.9974 104.609 31.1986 104.391 30.4725C104.125 29.7464 103.544 29.1897 102.818 28.9719ZM96.8621 35.7732C96.5232 36.2088 96.3537 36.7413 96.3779 37.2738L96.5716 42.1872L91.9476 40.4929C91.4392 40.2993 90.8824 40.2993 90.374 40.4929L85.75 42.1872L85.9437 37.2738C85.9679 36.7413 85.7985 36.2088 85.4595 35.7732L82.4092 31.9005L87.13 30.5693C87.6626 30.4241 88.0984 30.0853 88.4131 29.6496L91.1487 25.5591L93.8844 29.6496C94.1991 30.1095 94.6349 30.4241 95.1675 30.5693L99.8883 31.9005L96.8621 35.7732Z" fill="#151515"/>
	</symbol>

	<symbol id="linkedIn" viewBox="0 0 25 24">
		<path d="M5.95305 8.46129H0.796835V23.9877H5.95305V8.46129Z" />
		<path d="M22.8749 9.87954C21.7918 8.69398 20.3593 8.10109 18.5781 8.10109C17.9219 8.10109 17.3254 8.18203 16.7888 8.34403C16.2524 8.50592 15.7994 8.73305 15.4295 9.02555C15.0598 9.31804 14.7654 9.58957 14.5468 9.84013C14.3389 10.0781 14.1357 10.3554 13.9374 10.669V8.46119H8.79652L8.81228 9.21333C8.82284 9.71485 8.82804 11.2606 8.82804 13.8509C8.82804 16.4413 8.81764 19.8202 8.79673 23.9878H13.9374V15.3235C13.9374 14.7909 13.9943 14.368 14.1091 14.0543C14.3281 13.5214 14.6584 13.0752 15.1014 12.715C15.5443 12.3543 16.0936 12.1742 16.7501 12.1742C17.6456 12.1742 18.3047 12.4849 18.7267 13.1063C19.1485 13.7278 19.3594 14.5869 19.3594 15.6837V23.9873H24.5V15.0887C24.4996 12.801 23.9584 11.0647 22.8749 9.87954Z" />
		<path d="M3.4062 0.987793C2.54172 0.987793 1.84126 1.24127 1.30466 1.74773C0.76811 2.25429 0.5 2.89383 0.5 3.66693C0.5 4.42922 0.760394 5.06656 1.28124 5.57823C1.80191 6.08996 2.48951 6.34596 3.34365 6.34596H3.3749C4.24999 6.34596 4.95581 6.09018 5.4922 5.57823C6.02858 5.06656 6.29155 4.42944 6.2812 3.66693C6.27081 2.89388 6.00499 2.25429 5.48432 1.74773C4.96369 1.24105 4.27073 0.987793 3.4062 0.987793Z" />
	</symbol>

</svg>
